<svg width="105" height="14" viewBox="0 0 105 14" fill="none" xmlns="http://www.w3.org/2000/svg">
<path d="M11.0654 8.83398C10.9365 10.1992 10.4326 11.2656 9.55371 12.0332C8.6748 12.7949 7.50586 13.1758 6.04688 13.1758C5.02734 13.1758 4.12793 12.9355 3.34863 12.4551C2.5752 11.9688 1.97754 11.2803 1.55566 10.3896C1.13379 9.49902 0.914062 8.46484 0.896484 7.28711V6.0918C0.896484 4.88477 1.11035 3.82129 1.53809 2.90137C1.96582 1.98145 2.57812 1.27246 3.375 0.774414C4.17773 0.276367 5.10352 0.0273438 6.15234 0.0273438C7.56445 0.0273438 8.70117 0.411133 9.5625 1.17871C10.4238 1.94629 10.9248 3.03027 11.0654 4.43066H8.85059C8.74512 3.51074 8.47559 2.84863 8.04199 2.44434C7.61426 2.03418 6.98438 1.8291 6.15234 1.8291C5.18555 1.8291 4.44141 2.18359 3.91992 2.89258C3.4043 3.5957 3.14062 4.62988 3.12891 5.99512V7.12891C3.12891 8.51172 3.375 9.56641 3.86719 10.293C4.36523 11.0195 5.0918 11.3828 6.04688 11.3828C6.91992 11.3828 7.57617 11.1865 8.01562 10.7939C8.45508 10.4014 8.7334 9.74805 8.85059 8.83398H11.0654ZM17.833 5.44141C17.5518 5.39453 17.2617 5.37109 16.9629 5.37109C15.9844 5.37109 15.3252 5.74609 14.9854 6.49609V13H12.8496V3.49023H14.8887L14.9414 4.55371C15.457 3.72754 16.1719 3.31445 17.0859 3.31445C17.3906 3.31445 17.6426 3.35547 17.8418 3.4375L17.833 5.44141ZM23.1943 13.1758C21.8408 13.1758 20.7422 12.751 19.8984 11.9014C19.0605 11.0459 18.6416 9.90918 18.6416 8.49121V8.22754C18.6416 7.27832 18.8232 6.43164 19.1865 5.6875C19.5557 4.9375 20.0713 4.35449 20.7334 3.93848C21.3955 3.52246 22.1338 3.31445 22.9482 3.31445C24.2432 3.31445 25.2422 3.72754 25.9453 4.55371C26.6543 5.37988 27.0088 6.54883 27.0088 8.06055V8.92188H20.7949C20.8594 9.70703 21.1201 10.3281 21.5771 10.7852C22.04 11.2422 22.6201 11.4707 23.3174 11.4707C24.2959 11.4707 25.0928 11.0752 25.708 10.2842L26.8594 11.3828C26.4785 11.9512 25.9688 12.3936 25.3301 12.71C24.6973 13.0205 23.9854 13.1758 23.1943 13.1758ZM22.9395 5.02832C22.3535 5.02832 21.8789 5.2334 21.5156 5.64355C21.1582 6.05371 20.9297 6.625 20.8301 7.35742H24.8994V7.19922C24.8525 6.48438 24.6621 5.94531 24.3281 5.58203C23.9941 5.21289 23.5312 5.02832 22.9395 5.02832ZM34.3564 13C34.2627 12.8184 34.1807 12.5225 34.1104 12.1123C33.4307 12.8213 32.5986 13.1758 31.6143 13.1758C30.6592 13.1758 29.8799 12.9033 29.2764 12.3584C28.6729 11.8135 28.3711 11.1396 28.3711 10.3369C28.3711 9.32324 28.7461 8.54688 29.4961 8.00781C30.252 7.46289 31.3301 7.19043 32.7305 7.19043H34.04V6.56641C34.04 6.07422 33.9023 5.68164 33.627 5.38867C33.3516 5.08984 32.9326 4.94043 32.3701 4.94043C31.8838 4.94043 31.4854 5.06348 31.1748 5.30957C30.8643 5.5498 30.709 5.85742 30.709 6.23242H28.5732C28.5732 5.71094 28.7461 5.22461 29.0918 4.77344C29.4375 4.31641 29.9062 3.95898 30.498 3.70117C31.0957 3.44336 31.7607 3.31445 32.4932 3.31445C33.6064 3.31445 34.4941 3.5957 35.1562 4.1582C35.8184 4.71484 36.1582 5.5 36.1758 6.51367V10.8027C36.1758 11.6582 36.2959 12.3408 36.5361 12.8506V13H34.3564ZM32.0098 11.4619C32.4316 11.4619 32.8271 11.3594 33.1963 11.1543C33.5713 10.9492 33.8525 10.6738 34.04 10.3281V8.53516H32.8887C32.0977 8.53516 31.5029 8.67285 31.1045 8.94824C30.7061 9.22363 30.5068 9.61328 30.5068 10.1172C30.5068 10.5273 30.6416 10.8555 30.9111 11.1016C31.1865 11.3418 31.5527 11.4619 32.0098 11.4619ZM41.0889 1.17871V3.49023H42.7676V5.07227H41.0889V10.3809C41.0889 10.7441 41.1592 11.0078 41.2998 11.1719C41.4463 11.3301 41.7041 11.4092 42.0732 11.4092C42.3193 11.4092 42.5684 11.3799 42.8203 11.3213V12.9736C42.334 13.1084 41.8652 13.1758 41.4141 13.1758C39.7734 13.1758 38.9531 12.2705 38.9531 10.46V5.07227H37.3887V3.49023H38.9531V1.17871H41.0889ZM48.5947 13.1758C47.2412 13.1758 46.1426 12.751 45.2988 11.9014C44.4609 11.0459 44.042 9.90918 44.042 8.49121V8.22754C44.042 7.27832 44.2236 6.43164 44.5869 5.6875C44.9561 4.9375 45.4717 4.35449 46.1338 3.93848C46.7959 3.52246 47.5342 3.31445 48.3486 3.31445C49.6436 3.31445 50.6426 3.72754 51.3457 4.55371C52.0547 5.37988 52.4092 6.54883 52.4092 8.06055V8.92188H46.1953C46.2598 9.70703 46.5205 10.3281 46.9775 10.7852C47.4404 11.2422 48.0205 11.4707 48.7178 11.4707C49.6963 11.4707 50.4932 11.0752 51.1084 10.2842L52.2598 11.3828C51.8789 11.9512 51.3691 12.3936 50.7305 12.71C50.0977 13.0205 49.3857 13.1758 48.5947 13.1758ZM48.3398 5.02832C47.7539 5.02832 47.2793 5.2334 46.916 5.64355C46.5586 6.05371 46.3301 6.625 46.2305 7.35742H50.2998V7.19922C50.2529 6.48438 50.0625 5.94531 49.7285 5.58203C49.3945 5.21289 48.9316 5.02832 48.3398 5.02832ZM68.5723 11.3389C68.1094 11.9424 67.4678 12.3994 66.6475 12.71C65.8271 13.0205 64.8955 13.1758 63.8525 13.1758C62.7803 13.1758 61.8311 12.9326 61.0049 12.4463C60.1787 11.96 59.54 11.2656 59.0889 10.3633C58.6436 9.45508 58.4121 8.39746 58.3945 7.19043V6.18848C58.3945 4.25488 58.8574 2.74609 59.7832 1.66211C60.709 0.572266 62.001 0.0273438 63.6592 0.0273438C65.083 0.0273438 66.2139 0.378906 67.0518 1.08203C67.8896 1.78516 68.3936 2.79883 68.5635 4.12305H66.3838C66.1377 2.58203 65.2441 1.81152 63.7031 1.81152C62.707 1.81152 61.9482 2.17188 61.4268 2.89258C60.9111 3.60742 60.6445 4.65918 60.627 6.04785V7.03223C60.627 8.41504 60.917 9.49023 61.4971 10.2578C62.083 11.0195 62.8945 11.4004 63.9316 11.4004C65.0684 11.4004 65.877 11.1426 66.3574 10.627V8.12207H63.7207V6.43457H68.5723V11.3389ZM76.4912 13C76.3975 12.8184 76.3154 12.5225 76.2451 12.1123C75.5654 12.8213 74.7334 13.1758 73.749 13.1758C72.7939 13.1758 72.0146 12.9033 71.4111 12.3584C70.8076 11.8135 70.5059 11.1396 70.5059 10.3369C70.5059 9.32324 70.8809 8.54688 71.6309 8.00781C72.3867 7.46289 73.4648 7.19043 74.8652 7.19043H76.1748V6.56641C76.1748 6.07422 76.0371 5.68164 75.7617 5.38867C75.4863 5.08984 75.0674 4.94043 74.5049 4.94043C74.0186 4.94043 73.6201 5.06348 73.3096 5.30957C72.999 5.5498 72.8438 5.85742 72.8438 6.23242H70.708C70.708 5.71094 70.8809 5.22461 71.2266 4.77344C71.5723 4.31641 72.041 3.95898 72.6328 3.70117C73.2305 3.44336 73.8955 3.31445 74.6279 3.31445C75.7412 3.31445 76.6289 3.5957 77.291 4.1582C77.9531 4.71484 78.293 5.5 78.3105 6.51367V10.8027C78.3105 11.6582 78.4307 12.3408 78.6709 12.8506V13H76.4912ZM74.1445 11.4619C74.5664 11.4619 74.9619 11.3594 75.3311 11.1543C75.7061 10.9492 75.9873 10.6738 76.1748 10.3281V8.53516H75.0234C74.2324 8.53516 73.6377 8.67285 73.2393 8.94824C72.8408 9.22363 72.6416 9.61328 72.6416 10.1172C72.6416 10.5273 72.7764 10.8555 73.0459 11.1016C73.3213 11.3418 73.6875 11.4619 74.1445 11.4619ZM82.5557 3.49023L82.6172 4.4834C83.2852 3.7041 84.1992 3.31445 85.3594 3.31445C86.6309 3.31445 87.501 3.80078 87.9697 4.77344C88.6611 3.80078 89.6338 3.31445 90.8877 3.31445C91.9365 3.31445 92.7158 3.60449 93.2256 4.18457C93.7412 4.76465 94.0049 5.62012 94.0166 6.75098V13H91.8809V6.8125C91.8809 6.20898 91.749 5.7666 91.4854 5.48535C91.2217 5.2041 90.7852 5.06348 90.1758 5.06348C89.6895 5.06348 89.291 5.19531 88.9805 5.45898C88.6758 5.7168 88.4619 6.05664 88.3389 6.47852L88.3477 13H86.2119V6.74219C86.1826 5.62305 85.6113 5.06348 84.498 5.06348C83.6426 5.06348 83.0361 5.41211 82.6787 6.10938V13H80.543V3.49023H82.5557ZM100.397 13.1758C99.0439 13.1758 97.9453 12.751 97.1016 11.9014C96.2637 11.0459 95.8447 9.90918 95.8447 8.49121V8.22754C95.8447 7.27832 96.0264 6.43164 96.3896 5.6875C96.7588 4.9375 97.2744 4.35449 97.9365 3.93848C98.5986 3.52246 99.3369 3.31445 100.151 3.31445C101.446 3.31445 102.445 3.72754 103.148 4.55371C103.857 5.37988 104.212 6.54883 104.212 8.06055V8.92188H97.998C98.0625 9.70703 98.3232 10.3281 98.7803 10.7852C99.2432 11.2422 99.8232 11.4707 100.521 11.4707C101.499 11.4707 102.296 11.0752 102.911 10.2842L104.062 11.3828C103.682 11.9512 103.172 12.3936 102.533 12.71C101.9 13.0205 101.188 13.1758 100.397 13.1758ZM100.143 5.02832C99.5566 5.02832 99.082 5.2334 98.7188 5.64355C98.3613 6.05371 98.1328 6.625 98.0332 7.35742H102.103V7.19922C102.056 6.48438 101.865 5.94531 101.531 5.58203C101.197 5.21289 100.734 5.02832 100.143 5.02832Z" fill="#172C41"/>
</svg>
