<svg width="24" height="24" viewBox="0 0 24 24" fill="none" xmlns="http://www.w3.org/2000/svg">
<g clip-path="url(#clip0_4_97)">
<path d="M20.1681 3.21366C15.439 -1.18197 8.07986 -1.0475 3.51443 3.51769C-1.05101 8.08313 -1.18524 15.4423 3.21039 20.1714L20.1681 3.21366ZM6.11676 16.2562L5.39287 16.9804C5.2211 17.1522 4.94258 17.1522 4.77081 16.9804C4.59904 16.8086 4.59904 16.5301 4.77081 16.3583L5.49495 15.6344C5.66672 15.4627 5.94524 15.4627 6.11676 15.6344C6.28853 15.8062 6.28853 16.0845 6.11676 16.2562ZM7.92674 14.4463L7.20285 15.1702C7.03108 15.3419 6.75281 15.3419 6.58104 15.1702C6.40926 14.9984 6.40926 14.7199 6.58104 14.5484L7.30493 13.8242C7.4767 13.6524 7.75522 13.6524 7.92699 13.8242C8.09851 13.996 8.09851 14.2745 7.92699 14.4463H7.92674ZM9.73672 12.6363L9.01283 13.3604C8.84106 13.5322 8.56254 13.5322 8.39077 13.3604C8.21924 13.1887 8.21924 12.9101 8.39077 12.7384L9.11491 12.0145C9.28668 11.8427 9.56495 11.8427 9.73672 12.0145C9.90849 12.1863 9.90849 12.4645 9.73672 12.6363ZM11.5469 10.8263L10.8228 11.5502C10.6513 11.722 10.3728 11.722 10.201 11.5502C10.0292 11.3784 10.0292 11.0999 10.201 10.9281L10.9251 10.2043C11.0969 10.0325 11.3752 10.0325 11.5469 10.2043C11.7187 10.376 11.7187 10.6543 11.5469 10.8261V10.8263ZM13.3569 9.01609L12.633 9.74023C12.4613 9.91175 12.1827 9.91175 12.011 9.74023C11.8394 9.56846 11.8394 9.28994 12.011 9.11817L12.7351 8.39428C12.9069 8.22251 13.1854 8.22251 13.3569 8.39428C13.5287 8.56605 13.5287 8.84432 13.3569 9.01609ZM15.1671 7.20611L14.443 7.93025C14.2712 8.10178 13.993 8.10178 13.8212 7.93025C13.6494 7.75848 13.6494 7.47996 13.8212 7.30819L14.5451 6.58405C14.7169 6.41253 14.9954 6.41253 15.1671 6.58405C15.3389 6.75583 15.3389 7.03434 15.1671 7.20611ZM16.9771 5.39613L16.253 6.12003C16.0812 6.2918 15.8029 6.2918 15.6312 6.12003C15.4594 5.9485 15.4594 5.66999 15.6312 5.49821L16.3551 4.77408C16.5268 4.6023 16.8054 4.6023 16.9769 4.77408C17.1487 4.94585 17.1487 5.22436 16.9769 5.39613H16.9771ZM18.7469 3.00459C18.9186 3.17611 18.9186 3.45463 18.7469 3.6264L18.023 4.35029C17.8512 4.52206 17.5727 4.52206 17.4009 4.35029C17.2294 4.17852 17.2294 3.90025 17.4009 3.72848L18.1251 3.00459C18.2968 2.83282 18.5751 2.83282 18.7469 3.00459ZM16.3151 2.64239L17.0387 1.9185C17.2105 1.74673 17.489 1.74673 17.6605 1.9185C17.8323 2.09027 17.8323 2.36854 17.6605 2.54031L16.9366 3.26445C16.7649 3.43622 16.4866 3.43622 16.3148 3.26445C16.1431 3.09268 16.1431 2.81417 16.3148 2.64239H16.3151ZM14.5453 4.41237L15.2692 3.68824C15.441 3.51646 15.7193 3.51646 15.891 3.68824C16.0628 3.86001 16.0628 4.13852 15.891 4.31029L15.1671 5.03419C14.9954 5.20596 14.7169 5.20596 14.5451 5.03419C14.3736 4.86242 14.3736 4.5839 14.5451 4.41237H14.5453ZM12.7351 6.22235L13.4593 5.49821C13.631 5.32644 13.9093 5.32644 14.0811 5.49821C14.2528 5.66999 14.2528 5.9485 14.0811 6.12027L13.3569 6.84416C13.1854 7.01594 12.9069 7.01594 12.7351 6.84416C12.5633 6.67239 12.5633 6.39388 12.7351 6.22211V6.22235ZM10.9251 8.03233L11.649 7.30819C11.8208 7.13667 12.0993 7.13667 12.2708 7.30819C12.4426 7.47996 12.4426 7.75848 12.2708 7.93025L11.5469 8.65414C11.3752 8.82591 11.0969 8.82591 10.9251 8.65414C10.7534 8.48262 10.7534 8.2041 10.9251 8.03233ZM9.11491 9.84256L9.83905 9.11817C10.0108 8.94664 10.2893 8.94664 10.4611 9.11817C10.6329 9.28994 10.6329 9.56846 10.4611 9.74023L9.73697 10.4644C9.5652 10.6361 9.28668 10.6361 9.11491 10.4644C8.94314 10.2926 8.94314 10.0143 9.11491 9.84256ZM7.30493 11.6523L8.02882 10.9284C8.20059 10.7566 8.47911 10.7566 8.65088 10.9284C8.82265 11.0999 8.82265 11.3784 8.65088 11.5502L7.92674 12.2741C7.75497 12.4459 7.4767 12.4459 7.30493 12.2741C7.13316 12.1026 7.13316 11.8241 7.30493 11.6523ZM5.49495 13.4623L6.21884 12.7384C6.39061 12.5666 6.66913 12.5666 6.8409 12.7384C7.01267 12.9101 7.01267 13.1887 6.8409 13.3604L6.11676 14.0843C5.94524 14.2561 5.66672 14.2561 5.49495 14.0843C5.32318 13.9126 5.32318 13.6343 5.49495 13.4625V13.4623ZM3.68497 15.2722L4.40886 14.5484C4.58064 14.3766 4.85915 14.3766 5.03068 14.5484C5.20245 14.7201 5.20245 14.9984 5.03068 15.1702L4.30678 15.8943C4.13501 16.0661 3.8565 16.0661 3.68473 15.8943C3.5132 15.7225 3.5132 15.444 3.68473 15.2725L3.68497 15.2722ZM2.22614 17.7929C2.04824 17.7929 1.88775 17.6856 1.81978 17.5215C1.75156 17.3571 1.78935 17.1679 1.91499 17.0422L2.63913 16.3181C2.8109 16.1463 3.08917 16.1463 3.26094 16.3181C3.43271 16.4899 3.43271 16.7684 3.26094 16.9401L2.5368 17.664C2.4546 17.7465 2.3427 17.7929 2.22614 17.7929ZM3.00108 18.1281L3.72497 17.4042C3.89674 17.2324 4.17526 17.2324 4.34703 17.4042C4.5188 17.5757 4.5188 17.8542 4.34703 18.026L3.62289 18.7501C3.45136 18.9219 3.17285 18.9219 3.00108 18.7501C2.8293 18.5786 2.8293 18.3001 3.00108 18.1283V18.1281Z" fill="#CACED3"/>
<path d="M3.83221 20.793C8.56108 25.1884 15.9203 25.0536 20.4852 20.4882C25.0509 15.9233 25.1854 8.56383 20.79 3.83496L3.83221 20.793ZM17.8836 7.75037L18.6075 7.02623C18.7793 6.8547 19.0578 6.8547 19.2296 7.02623C19.4011 7.198 19.4011 7.47652 19.2296 7.64829L18.5054 8.37218C18.3336 8.54395 18.0551 8.54395 17.8834 8.37218C17.7116 8.20041 17.7116 7.92214 17.8834 7.75037H17.8836ZM16.0734 9.56035L16.7975 8.83645C16.969 8.66468 17.2476 8.66468 17.4193 8.83645C17.5911 9.00798 17.5911 9.2865 17.4193 9.45827L16.6954 10.1822C16.5237 10.3539 16.2451 10.3539 16.0734 10.1822C15.9016 10.0106 15.9016 9.73212 16.0734 9.56035ZM14.2634 11.3703L14.9875 10.6462C15.1593 10.4747 15.4376 10.4747 15.6093 10.6462C15.7811 10.818 15.7811 11.0965 15.6093 11.2682L14.8855 11.9921C14.7137 12.1639 14.4352 12.1639 14.2636 11.9921C14.0919 11.8204 14.0919 11.5421 14.2636 11.3703H14.2634ZM12.4534 13.1803L13.1773 12.4564C13.3491 12.2846 13.6276 12.2846 13.7994 12.4564C13.9711 12.6282 13.9711 12.9065 13.7994 13.0782L13.0752 13.8024C12.9035 13.9741 12.6249 13.9741 12.4534 13.8024C12.2816 13.6306 12.2816 13.3521 12.4534 13.1806V13.1803ZM10.6432 14.9905L11.3673 14.2664C11.5391 14.0949 11.8174 14.0949 11.9891 14.2664C12.1609 14.4382 12.1609 14.7167 11.9891 14.8885L11.2653 15.6123C11.0935 15.7841 10.815 15.7841 10.6432 15.6123C10.4714 15.4406 10.4714 15.1623 10.6432 14.9905ZM8.83321 16.8005L9.55735 16.0766C9.72888 15.9049 10.0074 15.9049 10.1792 16.0766C10.3509 16.2481 10.3509 16.5267 10.1792 16.6984L9.45503 17.4226C9.28326 17.5943 9.00499 17.5943 8.83321 17.4226C8.66144 17.2508 8.66144 16.9723 8.83321 16.8005ZM7.02348 18.6105L7.74737 17.8866C7.91915 17.7148 8.19741 17.7148 8.36919 17.8866C8.54096 18.0584 8.54096 18.3366 8.36919 18.5084L7.64529 19.2326C7.47352 19.4041 7.19525 19.4041 7.02348 19.2326C6.85171 19.0608 6.85171 18.7823 7.02348 18.6105ZM5.56465 21.1309C5.38675 21.1309 5.22626 21.0236 5.15829 20.8595C5.09032 20.6951 5.12786 20.5059 5.2535 20.3802L5.97764 19.6561C6.14941 19.4843 6.42768 19.4843 6.59945 19.6561C6.77122 19.8279 6.77122 20.1064 6.59945 20.2782L5.87531 21.0023C5.79286 21.0847 5.68121 21.1309 5.56465 21.1309ZM7.68554 21.364L6.96164 22.0881C6.78987 22.2599 6.51136 22.2599 6.33959 22.0881C6.16781 21.9164 6.16781 21.6381 6.33959 21.4663L7.06372 20.7422C7.23525 20.5704 7.51377 20.5704 7.68554 20.7422C7.85731 20.9139 7.85731 21.1925 7.68554 21.3642V21.364ZM9.45527 19.5943L8.73138 20.3181C8.55961 20.4899 8.28109 20.4899 8.10932 20.3181C7.93779 20.1464 7.93779 19.8681 8.10932 19.6963L8.83346 18.9722C9.00523 18.8007 9.2835 18.8007 9.45527 18.9722C9.62704 19.144 9.62704 19.4225 9.45527 19.5943ZM11.2653 17.7843L10.5411 18.5084C10.3693 18.6802 10.0908 18.6802 9.9193 18.5084C9.74753 18.3366 9.74753 18.0581 9.9193 17.8864L10.6432 17.1625C10.815 16.9907 11.0935 16.9907 11.2653 17.1625C11.437 17.3342 11.437 17.6127 11.2653 17.7845V17.7843ZM13.0752 15.9743L12.3513 16.6984C12.1796 16.8702 11.9011 16.8702 11.7293 16.6984C11.5575 16.5267 11.5575 16.2481 11.7293 16.0764L12.4534 15.3525C12.6249 15.1807 12.9035 15.1807 13.0752 15.3525C13.247 15.5243 13.247 15.8025 13.0752 15.9743ZM14.8855 14.1641L14.1611 14.8885C13.9893 15.06 13.711 15.06 13.5393 14.8885C13.3675 14.7167 13.3675 14.4382 13.5393 14.2664L14.2634 13.5423C14.4352 13.3705 14.7137 13.3705 14.8852 13.5423C15.057 13.714 15.057 13.9925 14.8852 14.1641H14.8855ZM16.6954 12.3541L15.9713 13.0782C15.7998 13.25 15.5213 13.25 15.3495 13.0782C15.1777 12.9065 15.1777 12.6279 15.3495 12.4562L16.0736 11.7323C16.2454 11.5605 16.5237 11.5605 16.6954 11.7323C16.8672 11.904 16.8672 12.1823 16.6954 12.3541ZM18.5054 10.5441L17.7813 11.2682C17.6095 11.44 17.3312 11.44 17.1595 11.2682C16.9877 11.0965 16.9877 10.818 17.1595 10.6462L17.8834 9.9223C18.0551 9.75052 18.3336 9.75052 18.5054 9.9223C18.6772 10.0941 18.6772 10.3723 18.5054 10.5441ZM20.3154 8.73413L19.5915 9.45802C19.4197 9.62979 19.1412 9.62979 18.9694 9.45802C18.7977 9.2865 18.7977 9.00798 18.9694 8.83621L19.6936 8.11207C19.8654 7.94054 20.1436 7.94054 20.3154 8.11207C20.4872 8.28384 20.4872 8.56236 20.3154 8.73413ZM22.0851 6.34258C22.2569 6.5141 22.2569 6.79262 22.0851 6.96439L21.3612 7.68829C21.1895 7.86006 20.9109 7.86006 20.7394 7.68829C20.5677 7.51676 20.5677 7.23824 20.7394 7.06647L21.4633 6.34258C21.6351 6.17081 21.9136 6.17081 22.0851 6.34258ZM20.9993 5.8783L20.2751 6.60244C20.1034 6.77422 19.8251 6.77422 19.6533 6.60244C19.4816 6.43067 19.4816 6.15216 19.6533 5.98039L20.3772 5.25649C20.549 5.08472 20.8275 5.08472 20.9993 5.25649C21.1708 5.42826 21.1708 5.70653 20.9993 5.8783Z" fill="#CACED3"/>
</g>
<defs>
<clipPath id="clip0_4_97">
<rect width="24" height="24" fill="white"/>
</clipPath>
</defs>
</svg>
