<svg width="47" height="15" viewBox="0 0 47 15" fill="none" xmlns="http://www.w3.org/2000/svg">
<path d="M7.54297 8.34863H2.17285V14H0.485352V1.20312H8.41309V2.5918H2.17285V6.96875H7.54297V8.34863ZM11.9463 14H10.3203V4.49023H11.9463V14ZM10.1885 1.96777C10.1885 1.7041 10.2676 1.48145 10.4258 1.2998C10.5898 1.11816 10.8301 1.02734 11.1465 1.02734C11.4629 1.02734 11.7031 1.11816 11.8672 1.2998C12.0312 1.48145 12.1133 1.7041 12.1133 1.96777C12.1133 2.23145 12.0312 2.45117 11.8672 2.62695C11.7031 2.80273 11.4629 2.89062 11.1465 2.89062C10.8301 2.89062 10.5898 2.80273 10.4258 2.62695C10.2676 2.45117 10.1885 2.23145 10.1885 1.96777ZM16.3232 14H14.6973V0.5H16.3232V14ZM21.1396 2.1875V4.49023H22.915V5.74707H21.1396V11.6445C21.1396 12.0254 21.2188 12.3125 21.377 12.5059C21.5352 12.6934 21.8047 12.7871 22.1855 12.7871C22.373 12.7871 22.6309 12.752 22.959 12.6816V14C22.5312 14.1172 22.1152 14.1758 21.7109 14.1758C20.9844 14.1758 20.4365 13.9561 20.0674 13.5166C19.6982 13.0771 19.5137 12.4531 19.5137 11.6445V5.74707H17.7822V4.49023H19.5137V2.1875H21.1396ZM28.7686 14.1758C27.4795 14.1758 26.4307 13.7539 25.6221 12.9102C24.8135 12.0605 24.4092 10.9268 24.4092 9.50879V9.20996C24.4092 8.2666 24.5879 7.42578 24.9453 6.6875C25.3086 5.94336 25.8125 5.36328 26.457 4.94727C27.1074 4.52539 27.8105 4.31445 28.5664 4.31445C29.8027 4.31445 30.7637 4.72168 31.4492 5.53613C32.1348 6.35059 32.4775 7.5166 32.4775 9.03418V9.71094H26.0352C26.0586 10.6484 26.3311 11.4072 26.8525 11.9873C27.3799 12.5615 28.0479 12.8486 28.8564 12.8486C29.4307 12.8486 29.917 12.7314 30.3154 12.4971C30.7139 12.2627 31.0625 11.9521 31.3613 11.5654L32.3545 12.3389C31.5576 13.5635 30.3623 14.1758 28.7686 14.1758ZM28.5664 5.65039C27.9102 5.65039 27.3594 5.89062 26.9141 6.37109C26.4688 6.8457 26.1934 7.51367 26.0879 8.375H30.8516V8.25195C30.8047 7.42578 30.582 6.78711 30.1836 6.33594C29.7852 5.87891 29.2461 5.65039 28.5664 5.65039ZM38.9639 5.94922C38.7178 5.9082 38.4512 5.8877 38.1641 5.8877C37.0977 5.8877 36.374 6.3418 35.9932 7.25V14H34.3672V4.49023H35.9492L35.9756 5.58887C36.5088 4.73926 37.2646 4.31445 38.2432 4.31445C38.5596 4.31445 38.7998 4.35547 38.9639 4.4375V5.94922ZM44.8789 13.1475C44.8789 12.8662 44.9609 12.6318 45.125 12.4443C45.2949 12.2568 45.5469 12.1631 45.8809 12.1631C46.2148 12.1631 46.4668 12.2568 46.6367 12.4443C46.8125 12.6318 46.9004 12.8662 46.9004 13.1475C46.9004 13.417 46.8125 13.6426 46.6367 13.8242C46.4668 14.0059 46.2148 14.0967 45.8809 14.0967C45.5469 14.0967 45.2949 14.0059 45.125 13.8242C44.9609 13.6426 44.8789 13.417 44.8789 13.1475ZM44.8877 5.38672C44.8877 5.10547 44.9697 4.87109 45.1338 4.68359C45.3037 4.49609 45.5557 4.40234 45.8896 4.40234C46.2236 4.40234 46.4756 4.49609 46.6455 4.68359C46.8213 4.87109 46.9092 5.10547 46.9092 5.38672C46.9092 5.65625 46.8213 5.88184 46.6455 6.06348C46.4756 6.24512 46.2236 6.33594 45.8896 6.33594C45.5557 6.33594 45.3037 6.24512 45.1338 6.06348C44.9697 5.88184 44.8877 5.65625 44.8877 5.38672Z" fill="#5D7079"/>
</svg>
