<svg width="78" height="12" viewBox="0 0 78 12" fill="none" xmlns="http://www.w3.org/2000/svg">
<path d="M5.57227 5.23242H2.10352L1.44727 9H0.345703L1.82812 0.46875H6.96094L6.79688 1.39453H2.76562L2.26172 4.3125H5.73633L5.57227 5.23242ZM10.0664 2.54297C10.5977 2.55078 11.0527 2.69531 11.4316 2.97656C11.8105 3.25781 12.0898 3.64648 12.2695 4.14258C12.4531 4.63477 12.5156 5.17383 12.457 5.75977L12.4453 5.88867C12.3711 6.50586 12.1875 7.06445 11.8945 7.56445C11.6016 8.06055 11.2227 8.44727 10.7578 8.72461C10.293 9.00195 9.7832 9.13281 9.22852 9.11719C8.70117 9.10938 8.24609 8.96484 7.86328 8.68359C7.48438 8.40234 7.20703 8.01953 7.03125 7.53516C6.85547 7.05078 6.79297 6.51758 6.84375 5.93555C6.90234 5.2793 7.08008 4.68945 7.37695 4.16602C7.67383 3.64258 8.05469 3.23828 8.51953 2.95312C8.98828 2.66406 9.50391 2.52734 10.0664 2.54297ZM7.91016 5.94141C7.88281 6.1875 7.88281 6.44336 7.91016 6.70898C7.94922 7.16992 8.08594 7.53711 8.32031 7.81055C8.55859 8.08398 8.875 8.22656 9.26953 8.23828C9.62109 8.25 9.94531 8.16406 10.2422 7.98047C10.5391 7.79297 10.7891 7.51172 10.9922 7.13672C11.1953 6.76172 11.3262 6.3457 11.3848 5.88867C11.416 5.5293 11.4219 5.22656 11.4023 4.98047C11.3555 4.50781 11.2129 4.13477 10.9746 3.86133C10.7363 3.58789 10.4199 3.44336 10.0254 3.42773C9.47852 3.41602 9.01367 3.63086 8.63086 4.07227C8.24805 4.51367 8.01172 5.0918 7.92188 5.80664L7.91016 5.94141ZM16.7695 2.54297C17.3008 2.55078 17.7559 2.69531 18.1348 2.97656C18.5137 3.25781 18.793 3.64648 18.9727 4.14258C19.1562 4.63477 19.2188 5.17383 19.1602 5.75977L19.1484 5.88867C19.0742 6.50586 18.8906 7.06445 18.5977 7.56445C18.3047 8.06055 17.9258 8.44727 17.4609 8.72461C16.9961 9.00195 16.4863 9.13281 15.9316 9.11719C15.4043 9.10938 14.9492 8.96484 14.5664 8.68359C14.1875 8.40234 13.9102 8.01953 13.7344 7.53516C13.5586 7.05078 13.4961 6.51758 13.5469 5.93555C13.6055 5.2793 13.7832 4.68945 14.0801 4.16602C14.377 3.64258 14.7578 3.23828 15.2227 2.95312C15.6914 2.66406 16.207 2.52734 16.7695 2.54297ZM14.6133 5.94141C14.5859 6.1875 14.5859 6.44336 14.6133 6.70898C14.6523 7.16992 14.7891 7.53711 15.0234 7.81055C15.2617 8.08398 15.5781 8.22656 15.9727 8.23828C16.3242 8.25 16.6484 8.16406 16.9453 7.98047C17.2422 7.79297 17.4922 7.51172 17.6953 7.13672C17.8984 6.76172 18.0293 6.3457 18.0879 5.88867C18.1191 5.5293 18.125 5.22656 18.1055 4.98047C18.0586 4.50781 17.916 4.13477 17.6777 3.86133C17.4395 3.58789 17.123 3.44336 16.7285 3.42773C16.1816 3.41602 15.7168 3.63086 15.334 4.07227C14.9512 4.51367 14.7148 5.0918 14.625 5.80664L14.6133 5.94141ZM22.752 1.125L22.4824 2.66016H23.6367L23.4902 3.49805H22.3418L21.6797 7.44141C21.668 7.54297 21.666 7.63672 21.6738 7.72266C21.7012 8.02734 21.8672 8.17969 22.1719 8.17969C22.3008 8.17969 22.4727 8.16016 22.6875 8.12109L22.6055 9.00586C22.3516 9.07617 22.0938 9.11133 21.832 9.11133C21.4102 9.10352 21.0938 8.94922 20.8828 8.64844C20.6719 8.34375 20.5898 7.93555 20.6367 7.42383L21.2812 3.49805H20.1621L20.3086 2.66016H21.4277L21.6973 1.125H22.752ZM29.5723 5.85938C29.4941 6.50781 29.3164 7.0918 29.0391 7.61133C28.7617 8.13086 28.4258 8.51562 28.0312 8.76562C27.6367 9.01562 27.1992 9.13477 26.7188 9.12305C25.9531 9.10742 25.3848 8.82031 25.0137 8.26172L24.7969 9H23.8184L25.3828 0H26.4434L25.8047 3.36328C26.3125 2.80078 26.9297 2.52734 27.6562 2.54297C28.2656 2.55859 28.7402 2.7832 29.0801 3.2168C29.4199 3.65039 29.5996 4.24805 29.6191 5.00977C29.623 5.25977 29.6113 5.50195 29.584 5.73633L29.5723 5.85938ZM28.5645 5.24414C28.5762 4.67383 28.4805 4.23828 28.2773 3.9375C28.0742 3.63281 27.7637 3.47266 27.3457 3.45703C26.6855 3.44141 26.127 3.77344 25.6699 4.45312L25.1953 7.21289C25.4297 7.85742 25.8691 8.1875 26.5137 8.20312C26.9277 8.21875 27.2891 8.0957 27.5977 7.83398C27.9102 7.57227 28.1465 7.20703 28.3066 6.73828C28.4668 6.26562 28.5527 5.76758 28.5645 5.24414ZM34.2949 9C34.2676 8.88672 34.2539 8.77539 34.2539 8.66602L34.2715 8.33203C33.6895 8.87109 33.0723 9.13281 32.4199 9.11719C31.8613 9.10938 31.4062 8.93359 31.0547 8.58984C30.707 8.24219 30.5488 7.80859 30.5801 7.28906C30.6191 6.61719 30.9121 6.09375 31.459 5.71875C32.0098 5.33984 32.7324 5.15039 33.627 5.15039L34.7344 5.15625L34.8047 4.65234C34.8438 4.27344 34.7695 3.97461 34.582 3.75586C34.3984 3.5332 34.1211 3.41797 33.75 3.41016C33.3867 3.40234 33.0645 3.49219 32.7832 3.67969C32.5059 3.86328 32.3359 4.10742 32.2734 4.41211L31.207 4.41797C31.2422 4.04688 31.3867 3.71875 31.6406 3.43359C31.8945 3.14453 32.2207 2.92188 32.6191 2.76562C33.0176 2.60547 33.4297 2.5293 33.8555 2.53711C34.5156 2.55273 35.0293 2.75391 35.3965 3.14062C35.7637 3.52344 35.918 4.0332 35.8594 4.66992L35.3438 7.81055L35.3145 8.26172C35.3066 8.47656 35.3301 8.68945 35.3848 8.90039L35.373 9H34.2949ZM32.6309 8.17969C32.9707 8.1875 33.291 8.10742 33.5918 7.93945C33.8965 7.76758 34.1582 7.53125 34.377 7.23047L34.6055 5.92383L33.8027 5.91797C33.1348 5.91797 32.623 6.02344 32.2676 6.23438C31.9121 6.44531 31.7109 6.74414 31.6641 7.13086C31.6289 7.42773 31.6973 7.67578 31.8691 7.875C32.0449 8.07031 32.2988 8.17188 32.6309 8.17969ZM37.9629 9H36.9082L38.4668 0H39.5273L37.9629 9ZM40.8457 9H39.791L41.3496 0H42.4102L40.8457 9ZM47.3672 5.66016L46.7871 9H45.6855L47.168 0.46875L50.0156 0.474609C50.8945 0.474609 51.5723 0.708984 52.0488 1.17773C52.5254 1.64258 52.7305 2.26172 52.6641 3.03516C52.5938 3.85156 52.2676 4.49414 51.6855 4.96289C51.1074 5.43164 50.3438 5.66602 49.3945 5.66602L47.3672 5.66016ZM47.5254 4.74023L49.4238 4.74609C50.0215 4.74609 50.5117 4.5957 50.8945 4.29492C51.2773 3.99414 51.502 3.57617 51.5684 3.04102C51.6309 2.56055 51.5312 2.17188 51.2695 1.875C51.0078 1.57422 50.627 1.41602 50.127 1.40039L48.1055 1.39453L47.5254 4.74023ZM54.0762 9H53.0215L54.5801 0H55.6406L54.0762 9ZM59.6895 9C59.6621 8.88672 59.6484 8.77539 59.6484 8.66602L59.666 8.33203C59.084 8.87109 58.4668 9.13281 57.8145 9.11719C57.2559 9.10938 56.8008 8.93359 56.4492 8.58984C56.1016 8.24219 55.9434 7.80859 55.9746 7.28906C56.0137 6.61719 56.3066 6.09375 56.8535 5.71875C57.4043 5.33984 58.127 5.15039 59.0215 5.15039L60.1289 5.15625L60.1992 4.65234C60.2383 4.27344 60.1641 3.97461 59.9766 3.75586C59.793 3.5332 59.5156 3.41797 59.1445 3.41016C58.7812 3.40234 58.459 3.49219 58.1777 3.67969C57.9004 3.86328 57.7305 4.10742 57.668 4.41211L56.6016 4.41797C56.6367 4.04688 56.7812 3.71875 57.0352 3.43359C57.2891 3.14453 57.6152 2.92188 58.0137 2.76562C58.4121 2.60547 58.8242 2.5293 59.25 2.53711C59.9102 2.55273 60.4238 2.75391 60.791 3.14062C61.1582 3.52344 61.3125 4.0332 61.2539 4.66992L60.7383 7.81055L60.709 8.26172C60.7012 8.47656 60.7246 8.68945 60.7793 8.90039L60.7676 9H59.6895ZM58.0254 8.17969C58.3652 8.1875 58.6855 8.10742 58.9863 7.93945C59.291 7.76758 59.5527 7.53125 59.7715 7.23047L60 5.92383L59.1973 5.91797C58.5293 5.91797 58.0176 6.02344 57.6621 6.23438C57.3066 6.44531 57.1055 6.74414 57.0586 7.13086C57.0234 7.42773 57.0918 7.67578 57.2637 7.875C57.4395 8.07031 57.6934 8.17188 58.0254 8.17969ZM64.3887 7.40039L66.6445 2.66016H67.8164L64.0547 10.0547C63.5312 11.082 62.8594 11.5898 62.0391 11.5781C61.8945 11.5742 61.6816 11.5391 61.4004 11.4727L61.4941 10.5938L61.7695 10.623C62.1055 10.6387 62.3945 10.5625 62.6367 10.3945C62.8828 10.2305 63.0996 9.96289 63.2871 9.5918L63.668 8.86523L62.5723 2.66016H63.6797L64.3887 7.40039ZM70.3418 9.11719C69.5527 9.10156 68.9355 8.81055 68.4902 8.24414C68.0449 7.67773 67.8574 6.95312 67.9277 6.07031L67.957 5.81836C68.0234 5.18945 68.209 4.61523 68.5137 4.0957C68.8223 3.57617 69.1973 3.18555 69.6387 2.92383C70.0801 2.6582 70.5566 2.53125 71.0684 2.54297C71.7207 2.55859 72.2324 2.77539 72.6035 3.19336C72.9746 3.61133 73.1777 4.17773 73.2129 4.89258C73.2246 5.14648 73.2168 5.40039 73.1895 5.6543L73.125 6.14062H68.9824C68.9121 6.71484 69.0059 7.20312 69.2637 7.60547C69.5254 8.00781 69.9141 8.2168 70.4297 8.23242C71.0547 8.24805 71.6328 7.9668 72.1641 7.38867L72.7734 7.9043C72.5078 8.28711 72.1641 8.58789 71.7422 8.80664C71.3242 9.02148 70.8574 9.125 70.3418 9.11719ZM71.0156 3.42773C70.5781 3.41602 70.1953 3.56445 69.8672 3.87305C69.543 4.18164 69.2852 4.64062 69.0938 5.25L72.1758 5.25586L72.1992 5.16211C72.2617 4.66992 72.1816 4.26172 71.959 3.9375C71.7402 3.60938 71.4258 3.43945 71.0156 3.42773ZM77.7656 3.62695L77.2676 3.57422C76.5879 3.57422 76.0527 3.88086 75.6621 4.49414L74.8828 9H73.8223L74.9238 2.66016L75.9492 2.6543L75.791 3.39258C76.2402 2.80273 76.7695 2.51562 77.3789 2.53125C77.5078 2.53125 77.6758 2.56055 77.8828 2.61914L77.7656 3.62695Z" fill="#C4C4C4"/>
</svg>
