<svg width="91" height="32" viewBox="0 0 91 32" fill="none" xmlns="http://www.w3.org/2000/svg">
<rect width="91" height="32" rx="2" fill="white"/>
<path d="M72.25 15.875L75.5 19.125L78.75 15.875" stroke="#A0A8B1" stroke-linecap="round" stroke-linejoin="round"/>
<path d="M12.3076 16.3662L12.7773 11.7578H17.5127V12.8433H13.7739L13.4946 15.3633C13.9474 15.0967 14.4616 14.9634 15.0371 14.9634C15.8792 14.9634 16.5479 15.2427 17.043 15.8013C17.5381 16.3556 17.7856 17.1068 17.7856 18.0547C17.7856 19.0068 17.5275 19.758 17.0112 20.3081C16.4992 20.854 15.7819 21.127 14.8594 21.127C14.0426 21.127 13.3761 20.9006 12.8599 20.4478C12.3436 19.995 12.0495 19.3687 11.9775 18.5688H13.0884C13.1603 19.0978 13.3486 19.4977 13.6533 19.7686C13.958 20.0352 14.36 20.1685 14.8594 20.1685C15.4053 20.1685 15.8327 19.9823 16.1416 19.6099C16.4548 19.2375 16.6113 18.7233 16.6113 18.0674C16.6113 17.4495 16.4421 16.9544 16.1035 16.582C15.7692 16.2054 15.3228 16.0171 14.7642 16.0171C14.2521 16.0171 13.8501 16.1292 13.5581 16.3535L13.2471 16.6074L12.3076 16.3662ZM24.6792 19.4067L26.3804 14.1318H27.5801L25.1172 21H24.2222L21.7339 14.1318H22.9336L24.6792 19.4067ZM32.709 19.1782C32.709 18.8608 32.5884 18.6154 32.3472 18.4419C32.1102 18.2642 31.6934 18.1118 31.0967 17.9849C30.5042 17.8579 30.0324 17.7056 29.6812 17.5278C29.3341 17.3501 29.076 17.1385 28.9067 16.8931C28.7417 16.6476 28.6592 16.3556 28.6592 16.0171C28.6592 15.4543 28.8962 14.9782 29.3701 14.5889C29.8483 14.1995 30.4577 14.0049 31.1982 14.0049C31.9769 14.0049 32.6074 14.2059 33.0898 14.6079C33.5765 15.0099 33.8198 15.5241 33.8198 16.1504H32.6392C32.6392 15.8288 32.5016 15.5516 32.2266 15.3188C31.9557 15.0861 31.613 14.9697 31.1982 14.9697C30.7708 14.9697 30.4365 15.0628 30.1953 15.249C29.9541 15.4352 29.8335 15.6785 29.8335 15.979C29.8335 16.2625 29.9456 16.4762 30.1699 16.6201C30.3942 16.764 30.7983 16.9015 31.3823 17.0327C31.9705 17.1639 32.4466 17.3205 32.8105 17.5024C33.1745 17.6844 33.4432 17.9045 33.6167 18.1626C33.7944 18.4165 33.8833 18.7275 33.8833 19.0957C33.8833 19.7093 33.6379 20.2023 33.147 20.5747C32.6561 20.9429 32.0192 21.127 31.2363 21.127C30.6862 21.127 30.1995 21.0296 29.7764 20.835C29.3532 20.6403 29.021 20.3695 28.7798 20.0225C28.5428 19.6712 28.4243 19.2925 28.4243 18.8862H29.5986C29.6198 19.2798 29.7764 19.5929 30.0684 19.8257C30.3646 20.0542 30.7539 20.1685 31.2363 20.1685C31.6807 20.1685 32.0361 20.0796 32.3027 19.9019C32.5736 19.7199 32.709 19.4787 32.709 19.1782ZM39.0566 16.3662L39.5264 11.7578H44.2617V12.8433H40.5229L40.2437 15.3633C40.6965 15.0967 41.2106 14.9634 41.7861 14.9634C42.6283 14.9634 43.2969 15.2427 43.792 15.8013C44.2871 16.3556 44.5347 17.1068 44.5347 18.0547C44.5347 19.0068 44.2765 19.758 43.7603 20.3081C43.2482 20.854 42.5309 21.127 41.6084 21.127C40.7917 21.127 40.1252 20.9006 39.6089 20.4478C39.0926 19.995 38.7985 19.3687 38.7266 18.5688H39.8374C39.9093 19.0978 40.0977 19.4977 40.4023 19.7686C40.707 20.0352 41.109 20.1685 41.6084 20.1685C42.1543 20.1685 42.5817 19.9823 42.8906 19.6099C43.2038 19.2375 43.3604 18.7233 43.3604 18.0674C43.3604 17.4495 43.1911 16.9544 42.8525 16.582C42.5182 16.2054 42.0718 16.0171 41.5132 16.0171C41.0011 16.0171 40.5991 16.1292 40.3071 16.3535L39.9961 16.6074L39.0566 16.3662Z" fill="#A0A8B1"/>
</svg>
