<svg width="76" height="14" viewBox="0 0 76 14" fill="none" xmlns="http://www.w3.org/2000/svg">
<path d="M6.53906 0.203125H8.75391V9.17676C8.75391 10.4014 8.37012 11.374 7.60254 12.0947C6.84082 12.8154 5.83301 13.1758 4.5791 13.1758C3.24316 13.1758 2.21191 12.8389 1.48535 12.165C0.758789 11.4912 0.395508 10.5537 0.395508 9.35254H2.61035C2.61035 10.0322 2.77734 10.5449 3.11133 10.8906C3.45117 11.2305 3.94043 11.4004 4.5791 11.4004C5.17676 11.4004 5.65137 11.2041 6.00293 10.8115C6.36035 10.4131 6.53906 9.86523 6.53906 9.16797V0.203125ZM16.7783 13C16.6846 12.8184 16.6025 12.5225 16.5322 12.1123C15.8525 12.8213 15.0205 13.1758 14.0361 13.1758C13.0811 13.1758 12.3018 12.9033 11.6982 12.3584C11.0947 11.8135 10.793 11.1396 10.793 10.3369C10.793 9.32324 11.168 8.54688 11.918 8.00781C12.6738 7.46289 13.752 7.19043 15.1523 7.19043H16.4619V6.56641C16.4619 6.07422 16.3242 5.68164 16.0488 5.38867C15.7734 5.08984 15.3545 4.94043 14.792 4.94043C14.3057 4.94043 13.9072 5.06348 13.5967 5.30957C13.2861 5.5498 13.1309 5.85742 13.1309 6.23242H10.9951C10.9951 5.71094 11.168 5.22461 11.5137 4.77344C11.8594 4.31641 12.3281 3.95898 12.9199 3.70117C13.5176 3.44336 14.1826 3.31445 14.915 3.31445C16.0283 3.31445 16.916 3.5957 17.5781 4.1582C18.2402 4.71484 18.5801 5.5 18.5977 6.51367V10.8027C18.5977 11.6582 18.7178 12.3408 18.958 12.8506V13H16.7783ZM14.4316 11.4619C14.8535 11.4619 15.249 11.3594 15.6182 11.1543C15.9932 10.9492 16.2744 10.6738 16.4619 10.3281V8.53516H15.3105C14.5195 8.53516 13.9248 8.67285 13.5264 8.94824C13.1279 9.22363 12.9287 9.61328 12.9287 10.1172C12.9287 10.5273 13.0635 10.8555 13.333 11.1016C13.6084 11.3418 13.9746 11.4619 14.4316 11.4619ZM22.8164 3.49023L22.8779 4.58887C23.5811 3.73926 24.5039 3.31445 25.6465 3.31445C27.627 3.31445 28.6348 4.44824 28.6699 6.71582V13H26.5342V6.83887C26.5342 6.23535 26.4023 5.79004 26.1387 5.50293C25.8809 5.20996 25.4561 5.06348 24.8643 5.06348C24.0029 5.06348 23.3613 5.45312 22.9395 6.23242V13H20.8037V3.49023H22.8164ZM35.042 13.1758C33.6885 13.1758 32.5898 12.751 31.7461 11.9014C30.9082 11.0459 30.4893 9.90918 30.4893 8.49121V8.22754C30.4893 7.27832 30.6709 6.43164 31.0342 5.6875C31.4033 4.9375 31.9189 4.35449 32.5811 3.93848C33.2432 3.52246 33.9814 3.31445 34.7959 3.31445C36.0908 3.31445 37.0898 3.72754 37.793 4.55371C38.502 5.37988 38.8564 6.54883 38.8564 8.06055V8.92188H32.6426C32.707 9.70703 32.9678 10.3281 33.4248 10.7852C33.8877 11.2422 34.4678 11.4707 35.165 11.4707C36.1436 11.4707 36.9404 11.0752 37.5557 10.2842L38.707 11.3828C38.3262 11.9512 37.8164 12.3936 37.1777 12.71C36.5449 13.0205 35.833 13.1758 35.042 13.1758ZM34.7871 5.02832C34.2012 5.02832 33.7266 5.2334 33.3633 5.64355C33.0059 6.05371 32.7773 6.625 32.6777 7.35742H36.7471V7.19922C36.7002 6.48438 36.5098 5.94531 36.1758 5.58203C35.8418 5.21289 35.3789 5.02832 34.7871 5.02832ZM45.2109 13V0.203125H48.9902C50.1211 0.203125 51.123 0.455078 51.9961 0.958984C52.875 1.46289 53.5547 2.17773 54.0352 3.10352C54.5156 4.0293 54.7559 5.08984 54.7559 6.28516V6.92676C54.7559 8.13965 54.5127 9.20605 54.0264 10.126C53.5459 11.0459 52.8574 11.7549 51.9609 12.2529C51.0703 12.751 50.0479 13 48.8936 13H45.2109ZM47.4346 1.99609V11.2246H48.8848C50.0508 11.2246 50.9443 10.8613 51.5654 10.1348C52.1924 9.40234 52.5117 8.35352 52.5234 6.98828V6.27637C52.5234 4.8877 52.2217 3.82715 51.6182 3.09473C51.0146 2.3623 50.1387 1.99609 48.9902 1.99609H47.4346ZM56.3643 8.15723C56.3643 7.22559 56.5488 6.3877 56.918 5.64355C57.2871 4.89355 57.8057 4.31934 58.4736 3.9209C59.1416 3.5166 59.9092 3.31445 60.7764 3.31445C62.0596 3.31445 63.0996 3.72754 63.8965 4.55371C64.6992 5.37988 65.1328 6.47559 65.1973 7.84082L65.2061 8.3418C65.2061 9.2793 65.0244 10.1172 64.6611 10.8555C64.3037 11.5938 63.7881 12.165 63.1143 12.5693C62.4463 12.9736 61.6729 13.1758 60.7939 13.1758C59.4521 13.1758 58.377 12.7305 57.5684 11.8398C56.7656 10.9434 56.3643 9.75098 56.3643 8.2627V8.15723ZM58.5 8.3418C58.5 9.32031 58.7021 10.0879 59.1064 10.6445C59.5107 11.1953 60.0732 11.4707 60.7939 11.4707C61.5146 11.4707 62.0742 11.1895 62.4727 10.627C62.877 10.0645 63.0791 9.24121 63.0791 8.15723C63.0791 7.19629 62.8711 6.43457 62.4551 5.87207C62.0449 5.30957 61.4854 5.02832 60.7764 5.02832C60.0791 5.02832 59.5254 5.30664 59.1152 5.86328C58.7051 6.41406 58.5 7.24023 58.5 8.3418ZM71.2002 13.1758C69.8467 13.1758 68.748 12.751 67.9043 11.9014C67.0664 11.0459 66.6475 9.90918 66.6475 8.49121V8.22754C66.6475 7.27832 66.8291 6.43164 67.1924 5.6875C67.5615 4.9375 68.0771 4.35449 68.7393 3.93848C69.4014 3.52246 70.1396 3.31445 70.9541 3.31445C72.249 3.31445 73.248 3.72754 73.9512 4.55371C74.6602 5.37988 75.0146 6.54883 75.0146 8.06055V8.92188H68.8008C68.8652 9.70703 69.126 10.3281 69.583 10.7852C70.0459 11.2422 70.626 11.4707 71.3232 11.4707C72.3018 11.4707 73.0986 11.0752 73.7139 10.2842L74.8652 11.3828C74.4844 11.9512 73.9746 12.3936 73.3359 12.71C72.7031 13.0205 71.9912 13.1758 71.2002 13.1758ZM70.9453 5.02832C70.3594 5.02832 69.8848 5.2334 69.5215 5.64355C69.1641 6.05371 68.9355 6.625 68.8359 7.35742H72.9053V7.19922C72.8584 6.48438 72.668 5.94531 72.334 5.58203C72 5.21289 71.5371 5.02832 70.9453 5.02832Z" fill="#959FA8"/>
</svg>
