<svg width="124" height="15" viewBox="0 0 124 15" fill="none" xmlns="http://www.w3.org/2000/svg">
<path d="M2.52441 12.2246H8.33398V14H0.300781V1.20312H2.52441V12.2246ZM15.5146 14C15.4209 13.8184 15.3389 13.5225 15.2686 13.1123C14.5889 13.8213 13.7568 14.1758 12.7725 14.1758C11.8174 14.1758 11.0381 13.9033 10.4346 13.3584C9.83105 12.8135 9.5293 12.1396 9.5293 11.3369C9.5293 10.3232 9.9043 9.54688 10.6543 9.00781C11.4102 8.46289 12.4883 8.19043 13.8887 8.19043H15.1982V7.56641C15.1982 7.07422 15.0605 6.68164 14.7852 6.38867C14.5098 6.08984 14.0908 5.94043 13.5283 5.94043C13.042 5.94043 12.6436 6.06348 12.333 6.30957C12.0225 6.5498 11.8672 6.85742 11.8672 7.23242H9.73145C9.73145 6.71094 9.9043 6.22461 10.25 5.77344C10.5957 5.31641 11.0645 4.95898 11.6562 4.70117C12.2539 4.44336 12.9189 4.31445 13.6514 4.31445C14.7646 4.31445 15.6523 4.5957 16.3145 5.1582C16.9766 5.71484 17.3164 6.5 17.334 7.51367V11.8027C17.334 12.6582 17.4541 13.3408 17.6943 13.8506V14H15.5146ZM13.168 12.4619C13.5898 12.4619 13.9854 12.3594 14.3545 12.1543C14.7295 11.9492 15.0107 11.6738 15.1982 11.3281V9.53516H14.0469C13.2559 9.53516 12.6611 9.67285 12.2627 9.94824C11.8643 10.2236 11.665 10.6133 11.665 11.1172C11.665 11.5273 11.7998 11.8555 12.0693 12.1016C12.3447 12.3418 12.7109 12.4619 13.168 12.4619ZM22.2471 2.17871V4.49023H23.9258V6.07227H22.2471V11.3809C22.2471 11.7441 22.3174 12.0078 22.458 12.1719C22.6045 12.3301 22.8623 12.4092 23.2314 12.4092C23.4775 12.4092 23.7266 12.3799 23.9785 12.3213V13.9736C23.4922 14.1084 23.0234 14.1758 22.5723 14.1758C20.9316 14.1758 20.1113 13.2705 20.1113 11.46V6.07227H18.5469V4.49023H20.1113V2.17871H22.2471ZM29.7529 14.1758C28.3994 14.1758 27.3008 13.751 26.457 12.9014C25.6191 12.0459 25.2002 10.9092 25.2002 9.49121V9.22754C25.2002 8.27832 25.3818 7.43164 25.7451 6.6875C26.1143 5.9375 26.6299 5.35449 27.292 4.93848C27.9541 4.52246 28.6924 4.31445 29.5068 4.31445C30.8018 4.31445 31.8008 4.72754 32.5039 5.55371C33.2129 6.37988 33.5674 7.54883 33.5674 9.06055V9.92188H27.3535C27.418 10.707 27.6787 11.3281 28.1357 11.7852C28.5986 12.2422 29.1787 12.4707 29.876 12.4707C30.8545 12.4707 31.6514 12.0752 32.2666 11.2842L33.418 12.3828C33.0371 12.9512 32.5273 13.3936 31.8887 13.71C31.2559 14.0205 30.5439 14.1758 29.7529 14.1758ZM29.498 6.02832C28.9121 6.02832 28.4375 6.2334 28.0742 6.64355C27.7168 7.05371 27.4883 7.625 27.3887 8.35742H31.458V8.19922C31.4111 7.48438 31.2207 6.94531 30.8867 6.58203C30.5527 6.21289 30.0898 6.02832 29.498 6.02832ZM40.5635 11.416C40.5635 11.0352 40.4053 10.7451 40.0889 10.5459C39.7783 10.3467 39.2598 10.1709 38.5332 10.0186C37.8066 9.86621 37.2002 9.67285 36.7139 9.43848C35.6475 8.92285 35.1143 8.17578 35.1143 7.19727C35.1143 6.37695 35.46 5.69141 36.1514 5.14062C36.8428 4.58984 37.7217 4.31445 38.7881 4.31445C39.9248 4.31445 40.8418 4.5957 41.5391 5.1582C42.2422 5.7207 42.5938 6.4502 42.5938 7.34668H40.458C40.458 6.93652 40.3057 6.59668 40.001 6.32715C39.6963 6.05176 39.292 5.91406 38.7881 5.91406C38.3193 5.91406 37.9355 6.02246 37.6367 6.23926C37.3438 6.45605 37.1973 6.74609 37.1973 7.10938C37.1973 7.4375 37.335 7.69238 37.6104 7.87402C37.8857 8.05566 38.4424 8.24023 39.2803 8.42773C40.1182 8.60938 40.7744 8.8291 41.249 9.08691C41.7295 9.33887 42.084 9.64355 42.3125 10.001C42.5469 10.3584 42.6641 10.792 42.6641 11.3018C42.6641 12.1572 42.3096 12.8516 41.6006 13.3848C40.8916 13.9121 39.9629 14.1758 38.8145 14.1758C38.0352 14.1758 37.3408 14.0352 36.7314 13.7539C36.1221 13.4727 35.6475 13.0859 35.3076 12.5938C34.9678 12.1016 34.7979 11.5713 34.7979 11.0029H36.8721C36.9014 11.5068 37.0918 11.8965 37.4434 12.1719C37.7949 12.4414 38.2607 12.5762 38.8408 12.5762C39.4033 12.5762 39.8311 12.4707 40.124 12.2598C40.417 12.043 40.5635 11.7617 40.5635 11.416ZM47.208 2.17871V4.49023H48.8867V6.07227H47.208V11.3809C47.208 11.7441 47.2783 12.0078 47.4189 12.1719C47.5654 12.3301 47.8232 12.4092 48.1924 12.4092C48.4385 12.4092 48.6875 12.3799 48.9395 12.3213V13.9736C48.4531 14.1084 47.9844 14.1758 47.5332 14.1758C45.8926 14.1758 45.0723 13.2705 45.0723 11.46V6.07227H43.5078V4.49023H45.0723V2.17871H47.208ZM58.0977 1.20312L61.7891 11.0117L65.4717 1.20312H68.3457V14H66.1309V9.78125L66.3506 4.13867L62.5713 14H60.9805L57.21 4.14746L57.4297 9.78125V14H55.2148V1.20312H58.0977ZM76.458 14C76.3643 13.8184 76.2822 13.5225 76.2119 13.1123C75.5322 13.8213 74.7002 14.1758 73.7158 14.1758C72.7607 14.1758 71.9814 13.9033 71.3779 13.3584C70.7744 12.8135 70.4727 12.1396 70.4727 11.3369C70.4727 10.3232 70.8477 9.54688 71.5977 9.00781C72.3535 8.46289 73.4316 8.19043 74.832 8.19043H76.1416V7.56641C76.1416 7.07422 76.0039 6.68164 75.7285 6.38867C75.4531 6.08984 75.0342 5.94043 74.4717 5.94043C73.9854 5.94043 73.5869 6.06348 73.2764 6.30957C72.9658 6.5498 72.8105 6.85742 72.8105 7.23242H70.6748C70.6748 6.71094 70.8477 6.22461 71.1934 5.77344C71.5391 5.31641 72.0078 4.95898 72.5996 4.70117C73.1973 4.44336 73.8623 4.31445 74.5947 4.31445C75.708 4.31445 76.5957 4.5957 77.2578 5.1582C77.9199 5.71484 78.2598 6.5 78.2773 7.51367V11.8027C78.2773 12.6582 78.3975 13.3408 78.6377 13.8506V14H76.458ZM74.1113 12.4619C74.5332 12.4619 74.9287 12.3594 75.2979 12.1543C75.6729 11.9492 75.9541 11.6738 76.1416 11.3281V9.53516H74.9902C74.1992 9.53516 73.6045 9.67285 73.2061 9.94824C72.8076 10.2236 72.6084 10.6133 72.6084 11.1172C72.6084 11.5273 72.7432 11.8555 73.0127 12.1016C73.2881 12.3418 73.6543 12.4619 74.1113 12.4619ZM83.1904 2.17871V4.49023H84.8691V6.07227H83.1904V11.3809C83.1904 11.7441 83.2607 12.0078 83.4014 12.1719C83.5479 12.3301 83.8057 12.4092 84.1748 12.4092C84.4209 12.4092 84.6699 12.3799 84.9219 12.3213V13.9736C84.4355 14.1084 83.9668 14.1758 83.5156 14.1758C81.875 14.1758 81.0547 13.2705 81.0547 11.46V6.07227H79.4902V4.49023H81.0547V2.17871H83.1904ZM90.415 12.4707C90.9482 12.4707 91.3906 12.3154 91.7422 12.0049C92.0938 11.6943 92.2812 11.3105 92.3047 10.8535H94.3174C94.2939 11.4453 94.1094 11.999 93.7637 12.5146C93.418 13.0244 92.9492 13.4287 92.3574 13.7275C91.7656 14.0264 91.127 14.1758 90.4414 14.1758C89.1113 14.1758 88.0566 13.7451 87.2773 12.8838C86.498 12.0225 86.1084 10.833 86.1084 9.31543V9.0957C86.1084 7.64844 86.4951 6.49121 87.2686 5.62402C88.042 4.75098 89.0967 4.31445 90.4326 4.31445C91.5635 4.31445 92.4834 4.64551 93.1924 5.30762C93.9072 5.96387 94.2822 6.82812 94.3174 7.90039H92.3047C92.2812 7.35547 92.0938 6.90723 91.7422 6.55566C91.3965 6.2041 90.9541 6.02832 90.415 6.02832C89.7236 6.02832 89.1904 6.28027 88.8154 6.78418C88.4404 7.28223 88.25 8.04102 88.2441 9.06055V9.40332C88.2441 10.4346 88.4287 11.2051 88.7979 11.7148C89.1729 12.2188 89.7119 12.4707 90.415 12.4707ZM98.0352 5.52734C98.7324 4.71875 99.6143 4.31445 100.681 4.31445C102.708 4.31445 103.736 5.47168 103.766 7.78613V14H101.63V7.86523C101.63 7.20898 101.486 6.74609 101.199 6.47656C100.918 6.20117 100.502 6.06348 99.9512 6.06348C99.0957 6.06348 98.457 6.44434 98.0352 7.20605V14H95.8994V0.5H98.0352V5.52734ZM110.12 14.1758C108.767 14.1758 107.668 13.751 106.824 12.9014C105.986 12.0459 105.567 10.9092 105.567 9.49121V9.22754C105.567 8.27832 105.749 7.43164 106.112 6.6875C106.481 5.9375 106.997 5.35449 107.659 4.93848C108.321 4.52246 109.06 4.31445 109.874 4.31445C111.169 4.31445 112.168 4.72754 112.871 5.55371C113.58 6.37988 113.935 7.54883 113.935 9.06055V9.92188H107.721C107.785 10.707 108.046 11.3281 108.503 11.7852C108.966 12.2422 109.546 12.4707 110.243 12.4707C111.222 12.4707 112.019 12.0752 112.634 11.2842L113.785 12.3828C113.404 12.9512 112.895 13.3936 112.256 13.71C111.623 14.0205 110.911 14.1758 110.12 14.1758ZM109.865 6.02832C109.279 6.02832 108.805 6.2334 108.441 6.64355C108.084 7.05371 107.855 7.625 107.756 8.35742H111.825V8.19922C111.778 7.48438 111.588 6.94531 111.254 6.58203C110.92 6.21289 110.457 6.02832 109.865 6.02832ZM120.931 11.416C120.931 11.0352 120.772 10.7451 120.456 10.5459C120.146 10.3467 119.627 10.1709 118.9 10.0186C118.174 9.86621 117.567 9.67285 117.081 9.43848C116.015 8.92285 115.481 8.17578 115.481 7.19727C115.481 6.37695 115.827 5.69141 116.519 5.14062C117.21 4.58984 118.089 4.31445 119.155 4.31445C120.292 4.31445 121.209 4.5957 121.906 5.1582C122.609 5.7207 122.961 6.4502 122.961 7.34668H120.825C120.825 6.93652 120.673 6.59668 120.368 6.32715C120.063 6.05176 119.659 5.91406 119.155 5.91406C118.687 5.91406 118.303 6.02246 118.004 6.23926C117.711 6.45605 117.564 6.74609 117.564 7.10938C117.564 7.4375 117.702 7.69238 117.978 7.87402C118.253 8.05566 118.81 8.24023 119.647 8.42773C120.485 8.60938 121.142 8.8291 121.616 9.08691C122.097 9.33887 122.451 9.64355 122.68 10.001C122.914 10.3584 123.031 10.792 123.031 11.3018C123.031 12.1572 122.677 12.8516 121.968 13.3848C121.259 13.9121 120.33 14.1758 119.182 14.1758C118.402 14.1758 117.708 14.0352 117.099 13.7539C116.489 13.4727 116.015 13.0859 115.675 12.5938C115.335 12.1016 115.165 11.5713 115.165 11.0029H117.239C117.269 11.5068 117.459 11.8965 117.811 12.1719C118.162 12.4414 118.628 12.5762 119.208 12.5762C119.771 12.5762 120.198 12.4707 120.491 12.2598C120.784 12.043 120.931 11.7617 120.931 11.416Z" fill="#172C41"/>
</svg>
