<svg width="83" height="15" viewBox="0 0 83 15" fill="none" xmlns="http://www.w3.org/2000/svg">
<path d="M2.52441 12.2246H8.33398V14H0.300781V1.20312H2.52441V12.2246ZM12.1045 14H9.96875V4.49023H12.1045V14ZM9.83691 2.02051C9.83691 1.69238 9.93945 1.41992 10.1445 1.20312C10.3555 0.986328 10.6543 0.87793 11.041 0.87793C11.4277 0.87793 11.7266 0.986328 11.9375 1.20312C12.1484 1.41992 12.2539 1.69238 12.2539 2.02051C12.2539 2.34277 12.1484 2.6123 11.9375 2.8291C11.7266 3.04004 11.4277 3.14551 11.041 3.14551C10.6543 3.14551 10.3555 3.04004 10.1445 2.8291C9.93945 2.6123 9.83691 2.34277 9.83691 2.02051ZM17.791 11.293L19.8037 4.49023H22.0098L18.7139 14H16.8594L13.5371 4.49023H15.752L17.791 11.293ZM27.415 14.1758C26.0615 14.1758 24.9629 13.751 24.1191 12.9014C23.2812 12.0459 22.8623 10.9092 22.8623 9.49121V9.22754C22.8623 8.27832 23.0439 7.43164 23.4072 6.6875C23.7764 5.9375 24.292 5.35449 24.9541 4.93848C25.6162 4.52246 26.3545 4.31445 27.1689 4.31445C28.4639 4.31445 29.4629 4.72754 30.166 5.55371C30.875 6.37988 31.2295 7.54883 31.2295 9.06055V9.92188H25.0156C25.0801 10.707 25.3408 11.3281 25.7979 11.7852C26.2607 12.2422 26.8408 12.4707 27.5381 12.4707C28.5166 12.4707 29.3135 12.0752 29.9287 11.2842L31.0801 12.3828C30.6992 12.9512 30.1895 13.3936 29.5508 13.71C28.918 14.0205 28.2061 14.1758 27.415 14.1758ZM27.1602 6.02832C26.5742 6.02832 26.0996 6.2334 25.7363 6.64355C25.3789 7.05371 25.1504 7.625 25.0508 8.35742H29.1201V8.19922C29.0732 7.48438 28.8828 6.94531 28.5488 6.58203C28.2148 6.21289 27.752 6.02832 27.1602 6.02832ZM44.2725 10.7041C44.2725 10.1416 44.0732 9.70801 43.6748 9.40332C43.2822 9.09863 42.5703 8.79102 41.5391 8.48047C40.5078 8.16992 39.6875 7.82422 39.0781 7.44336C37.9121 6.71094 37.3291 5.75586 37.3291 4.57812C37.3291 3.54688 37.748 2.69727 38.5859 2.0293C39.4297 1.36133 40.5225 1.02734 41.8643 1.02734C42.7549 1.02734 43.5488 1.19141 44.2461 1.51953C44.9434 1.84766 45.4912 2.31641 45.8896 2.92578C46.2881 3.5293 46.4873 4.2002 46.4873 4.93848H44.2725C44.2725 4.27051 44.0615 3.74902 43.6396 3.37402C43.2236 2.99316 42.626 2.80273 41.8467 2.80273C41.1201 2.80273 40.5547 2.95801 40.1504 3.26855C39.752 3.5791 39.5527 4.0127 39.5527 4.56934C39.5527 5.03809 39.7695 5.43066 40.2031 5.74707C40.6367 6.05762 41.3516 6.3623 42.3477 6.66113C43.3438 6.9541 44.1436 7.29102 44.7471 7.67188C45.3506 8.04688 45.793 8.48047 46.0742 8.97266C46.3555 9.45898 46.4961 10.0303 46.4961 10.6865C46.4961 11.7529 46.0859 12.6025 45.2656 13.2354C44.4512 13.8623 43.3438 14.1758 41.9434 14.1758C41.0176 14.1758 40.165 14.0059 39.3857 13.666C38.6123 13.3203 38.0088 12.8457 37.5752 12.2422C37.1475 11.6387 36.9336 10.9355 36.9336 10.1328H39.1572C39.1572 10.8594 39.3975 11.4219 39.8779 11.8203C40.3584 12.2188 41.0469 12.418 41.9434 12.418C42.7168 12.418 43.2969 12.2627 43.6836 11.9521C44.0762 11.6357 44.2725 11.2197 44.2725 10.7041ZM52.1475 12.4707C52.6807 12.4707 53.123 12.3154 53.4746 12.0049C53.8262 11.6943 54.0137 11.3105 54.0371 10.8535H56.0498C56.0264 11.4453 55.8418 11.999 55.4961 12.5146C55.1504 13.0244 54.6816 13.4287 54.0898 13.7275C53.498 14.0264 52.8594 14.1758 52.1738 14.1758C50.8438 14.1758 49.7891 13.7451 49.0098 12.8838C48.2305 12.0225 47.8408 10.833 47.8408 9.31543V9.0957C47.8408 7.64844 48.2275 6.49121 49.001 5.62402C49.7744 4.75098 50.8291 4.31445 52.165 4.31445C53.2959 4.31445 54.2158 4.64551 54.9248 5.30762C55.6396 5.96387 56.0146 6.82812 56.0498 7.90039H54.0371C54.0137 7.35547 53.8262 6.90723 53.4746 6.55566C53.1289 6.2041 52.6865 6.02832 52.1475 6.02832C51.4561 6.02832 50.9229 6.28027 50.5479 6.78418C50.1729 7.28223 49.9824 8.04102 49.9766 9.06055V9.40332C49.9766 10.4346 50.1611 11.2051 50.5303 11.7148C50.9053 12.2188 51.4443 12.4707 52.1475 12.4707ZM57.2627 9.15723C57.2627 8.22559 57.4473 7.3877 57.8164 6.64355C58.1855 5.89355 58.7041 5.31934 59.3721 4.9209C60.04 4.5166 60.8076 4.31445 61.6748 4.31445C62.958 4.31445 63.998 4.72754 64.7949 5.55371C65.5977 6.37988 66.0312 7.47559 66.0957 8.84082L66.1045 9.3418C66.1045 10.2793 65.9229 11.1172 65.5596 11.8555C65.2021 12.5938 64.6865 13.165 64.0127 13.5693C63.3447 13.9736 62.5713 14.1758 61.6924 14.1758C60.3506 14.1758 59.2754 13.7305 58.4668 12.8398C57.6641 11.9434 57.2627 10.751 57.2627 9.2627V9.15723ZM59.3984 9.3418C59.3984 10.3203 59.6006 11.0879 60.0049 11.6445C60.4092 12.1953 60.9717 12.4707 61.6924 12.4707C62.4131 12.4707 62.9727 12.1895 63.3711 11.627C63.7754 11.0645 63.9775 10.2412 63.9775 9.15723C63.9775 8.19629 63.7695 7.43457 63.3535 6.87207C62.9434 6.30957 62.3838 6.02832 61.6748 6.02832C60.9775 6.02832 60.4238 6.30664 60.0137 6.86328C59.6035 7.41406 59.3984 8.24023 59.3984 9.3418ZM72.8896 6.44141C72.6084 6.39453 72.3184 6.37109 72.0195 6.37109C71.041 6.37109 70.3818 6.74609 70.042 7.49609V14H67.9062V4.49023H69.9453L69.998 5.55371C70.5137 4.72754 71.2285 4.31445 72.1426 4.31445C72.4473 4.31445 72.6992 4.35547 72.8984 4.4375L72.8896 6.44141ZM78.251 14.1758C76.8975 14.1758 75.7988 13.751 74.9551 12.9014C74.1172 12.0459 73.6982 10.9092 73.6982 9.49121V9.22754C73.6982 8.27832 73.8799 7.43164 74.2432 6.6875C74.6123 5.9375 75.1279 5.35449 75.79 4.93848C76.4521 4.52246 77.1904 4.31445 78.0049 4.31445C79.2998 4.31445 80.2988 4.72754 81.002 5.55371C81.7109 6.37988 82.0654 7.54883 82.0654 9.06055V9.92188H75.8516C75.916 10.707 76.1768 11.3281 76.6338 11.7852C77.0967 12.2422 77.6768 12.4707 78.374 12.4707C79.3525 12.4707 80.1494 12.0752 80.7646 11.2842L81.916 12.3828C81.5352 12.9512 81.0254 13.3936 80.3867 13.71C79.7539 14.0205 79.042 14.1758 78.251 14.1758ZM77.9961 6.02832C77.4102 6.02832 76.9355 6.2334 76.5723 6.64355C76.2148 7.05371 75.9863 7.625 75.8867 8.35742H79.9561V8.19922C79.9092 7.48438 79.7188 6.94531 79.3848 6.58203C79.0508 6.21289 78.5879 6.02832 77.9961 6.02832Z" fill="#A0A8B1"/>
</svg>
