<svg width="106" height="15" viewBox="0 0 106 15" fill="none" xmlns="http://www.w3.org/2000/svg">
<path d="M2.52441 12.2246H8.33398V14H0.300781V1.20312H2.52441V12.2246ZM12.1045 14H9.96875V4.49023H12.1045V14ZM9.83691 2.02051C9.83691 1.69238 9.93945 1.41992 10.1445 1.20312C10.3555 0.986328 10.6543 0.87793 11.041 0.87793C11.4277 0.87793 11.7266 0.986328 11.9375 1.20312C12.1484 1.41992 12.2539 1.69238 12.2539 2.02051C12.2539 2.34277 12.1484 2.6123 11.9375 2.8291C11.7266 3.04004 11.4277 3.14551 11.041 3.14551C10.6543 3.14551 10.3555 3.04004 10.1445 2.8291C9.93945 2.6123 9.83691 2.34277 9.83691 2.02051ZM17.791 11.293L19.8037 4.49023H22.0098L18.7139 14H16.8594L13.5371 4.49023H15.752L17.791 11.293ZM27.415 14.1758C26.0615 14.1758 24.9629 13.751 24.1191 12.9014C23.2812 12.0459 22.8623 10.9092 22.8623 9.49121V9.22754C22.8623 8.27832 23.0439 7.43164 23.4072 6.6875C23.7764 5.9375 24.292 5.35449 24.9541 4.93848C25.6162 4.52246 26.3545 4.31445 27.1689 4.31445C28.4639 4.31445 29.4629 4.72754 30.166 5.55371C30.875 6.37988 31.2295 7.54883 31.2295 9.06055V9.92188H25.0156C25.0801 10.707 25.3408 11.3281 25.7979 11.7852C26.2607 12.2422 26.8408 12.4707 27.5381 12.4707C28.5166 12.4707 29.3135 12.0752 29.9287 11.2842L31.0801 12.3828C30.6992 12.9512 30.1895 13.3936 29.5508 13.71C28.918 14.0205 28.2061 14.1758 27.415 14.1758ZM27.1602 6.02832C26.5742 6.02832 26.0996 6.2334 25.7363 6.64355C25.3789 7.05371 25.1504 7.625 25.0508 8.35742H29.1201V8.19922C29.0732 7.48438 28.8828 6.94531 28.5488 6.58203C28.2148 6.21289 27.752 6.02832 27.1602 6.02832ZM40.4668 1.20312L44.1582 11.0117L47.8408 1.20312H50.7148V14H48.5V9.78125L48.7197 4.13867L44.9404 14H43.3496L39.5791 4.14746L39.7988 9.78125V14H37.584V1.20312H40.4668ZM58.8271 14C58.7334 13.8184 58.6514 13.5225 58.5811 13.1123C57.9014 13.8213 57.0693 14.1758 56.085 14.1758C55.1299 14.1758 54.3506 13.9033 53.7471 13.3584C53.1436 12.8135 52.8418 12.1396 52.8418 11.3369C52.8418 10.3232 53.2168 9.54688 53.9668 9.00781C54.7227 8.46289 55.8008 8.19043 57.2012 8.19043H58.5107V7.56641C58.5107 7.07422 58.373 6.68164 58.0977 6.38867C57.8223 6.08984 57.4033 5.94043 56.8408 5.94043C56.3545 5.94043 55.9561 6.06348 55.6455 6.30957C55.335 6.5498 55.1797 6.85742 55.1797 7.23242H53.0439C53.0439 6.71094 53.2168 6.22461 53.5625 5.77344C53.9082 5.31641 54.377 4.95898 54.9688 4.70117C55.5664 4.44336 56.2314 4.31445 56.9639 4.31445C58.0771 4.31445 58.9648 4.5957 59.627 5.1582C60.2891 5.71484 60.6289 6.5 60.6465 7.51367V11.8027C60.6465 12.6582 60.7666 13.3408 61.0068 13.8506V14H58.8271ZM56.4805 12.4619C56.9023 12.4619 57.2979 12.3594 57.667 12.1543C58.042 11.9492 58.3232 11.6738 58.5107 11.3281V9.53516H57.3594C56.5684 9.53516 55.9736 9.67285 55.5752 9.94824C55.1768 10.2236 54.9775 10.6133 54.9775 11.1172C54.9775 11.5273 55.1123 11.8555 55.3818 12.1016C55.6572 12.3418 56.0234 12.4619 56.4805 12.4619ZM65.5596 2.17871V4.49023H67.2383V6.07227H65.5596V11.3809C65.5596 11.7441 65.6299 12.0078 65.7705 12.1719C65.917 12.3301 66.1748 12.4092 66.5439 12.4092C66.79 12.4092 67.0391 12.3799 67.291 12.3213V13.9736C66.8047 14.1084 66.3359 14.1758 65.8848 14.1758C64.2441 14.1758 63.4238 13.2705 63.4238 11.46V6.07227H61.8594V4.49023H63.4238V2.17871H65.5596ZM72.7842 12.4707C73.3174 12.4707 73.7598 12.3154 74.1113 12.0049C74.4629 11.6943 74.6504 11.3105 74.6738 10.8535H76.6865C76.6631 11.4453 76.4785 11.999 76.1328 12.5146C75.7871 13.0244 75.3184 13.4287 74.7266 13.7275C74.1348 14.0264 73.4961 14.1758 72.8105 14.1758C71.4805 14.1758 70.4258 13.7451 69.6465 12.8838C68.8672 12.0225 68.4775 10.833 68.4775 9.31543V9.0957C68.4775 7.64844 68.8643 6.49121 69.6377 5.62402C70.4111 4.75098 71.4658 4.31445 72.8018 4.31445C73.9326 4.31445 74.8525 4.64551 75.5615 5.30762C76.2764 5.96387 76.6514 6.82812 76.6865 7.90039H74.6738C74.6504 7.35547 74.4629 6.90723 74.1113 6.55566C73.7656 6.2041 73.3232 6.02832 72.7842 6.02832C72.0928 6.02832 71.5596 6.28027 71.1846 6.78418C70.8096 7.28223 70.6191 8.04102 70.6133 9.06055V9.40332C70.6133 10.4346 70.7979 11.2051 71.167 11.7148C71.542 12.2188 72.0811 12.4707 72.7842 12.4707ZM80.4043 5.52734C81.1016 4.71875 81.9834 4.31445 83.0498 4.31445C85.0771 4.31445 86.1055 5.47168 86.1348 7.78613V14H83.999V7.86523C83.999 7.20898 83.8555 6.74609 83.5684 6.47656C83.2871 6.20117 82.8711 6.06348 82.3203 6.06348C81.4648 6.06348 80.8262 6.44434 80.4043 7.20605V14H78.2686V0.5H80.4043V5.52734ZM92.4893 14.1758C91.1357 14.1758 90.0371 13.751 89.1934 12.9014C88.3555 12.0459 87.9365 10.9092 87.9365 9.49121V9.22754C87.9365 8.27832 88.1182 7.43164 88.4814 6.6875C88.8506 5.9375 89.3662 5.35449 90.0283 4.93848C90.6904 4.52246 91.4287 4.31445 92.2432 4.31445C93.5381 4.31445 94.5371 4.72754 95.2402 5.55371C95.9492 6.37988 96.3037 7.54883 96.3037 9.06055V9.92188H90.0898C90.1543 10.707 90.415 11.3281 90.8721 11.7852C91.335 12.2422 91.915 12.4707 92.6123 12.4707C93.5908 12.4707 94.3877 12.0752 95.0029 11.2842L96.1543 12.3828C95.7734 12.9512 95.2637 13.3936 94.625 13.71C93.9922 14.0205 93.2803 14.1758 92.4893 14.1758ZM92.2344 6.02832C91.6484 6.02832 91.1738 6.2334 90.8105 6.64355C90.4531 7.05371 90.2246 7.625 90.125 8.35742H94.1943V8.19922C94.1475 7.48438 93.957 6.94531 93.623 6.58203C93.2891 6.21289 92.8262 6.02832 92.2344 6.02832ZM103.3 11.416C103.3 11.0352 103.142 10.7451 102.825 10.5459C102.515 10.3467 101.996 10.1709 101.27 10.0186C100.543 9.86621 99.9365 9.67285 99.4502 9.43848C98.3838 8.92285 97.8506 8.17578 97.8506 7.19727C97.8506 6.37695 98.1963 5.69141 98.8877 5.14062C99.5791 4.58984 100.458 4.31445 101.524 4.31445C102.661 4.31445 103.578 4.5957 104.275 5.1582C104.979 5.7207 105.33 6.4502 105.33 7.34668H103.194C103.194 6.93652 103.042 6.59668 102.737 6.32715C102.433 6.05176 102.028 5.91406 101.524 5.91406C101.056 5.91406 100.672 6.02246 100.373 6.23926C100.08 6.45605 99.9336 6.74609 99.9336 7.10938C99.9336 7.4375 100.071 7.69238 100.347 7.87402C100.622 8.05566 101.179 8.24023 102.017 8.42773C102.854 8.60938 103.511 8.8291 103.985 9.08691C104.466 9.33887 104.82 9.64355 105.049 10.001C105.283 10.3584 105.4 10.792 105.4 11.3018C105.4 12.1572 105.046 12.8516 104.337 13.3848C103.628 13.9121 102.699 14.1758 101.551 14.1758C100.771 14.1758 100.077 14.0352 99.4678 13.7539C98.8584 13.4727 98.3838 13.0859 98.0439 12.5938C97.7041 12.1016 97.5342 11.5713 97.5342 11.0029H99.6084C99.6377 11.5068 99.8281 11.8965 100.18 12.1719C100.531 12.4414 100.997 12.5762 101.577 12.5762C102.14 12.5762 102.567 12.4707 102.86 12.2598C103.153 12.043 103.3 11.7617 103.3 11.416Z" fill="#172C41"/>
</svg>
