<svg width="56" height="14" viewBox="0 0 56 14" fill="none" xmlns="http://www.w3.org/2000/svg">
<path d="M2.32861 11.3232H7.81543V13H0.228516V0.914062H2.32861V11.3232ZM8.85303 8.42627C8.85303 7.54639 9.02734 6.75505 9.37598 6.05225C9.72461 5.34391 10.2144 4.8016 10.8452 4.42529C11.4761 4.04346 12.201 3.85254 13.02 3.85254C14.2319 3.85254 15.2142 4.24268 15.9668 5.02295C16.7249 5.80322 17.1344 6.83805 17.1953 8.12744L17.2036 8.60059C17.2036 9.486 17.0321 10.2773 16.689 10.9746C16.3514 11.6719 15.8644 12.2114 15.228 12.5933C14.5972 12.9751 13.8667 13.166 13.0366 13.166C11.7694 13.166 10.7539 12.7454 9.99023 11.9043C9.2321 11.0576 8.85303 9.93148 8.85303 8.52588V8.42627ZM10.8701 8.60059C10.8701 9.52474 11.061 10.2497 11.4429 10.7754C11.8247 11.2956 12.356 11.5557 13.0366 11.5557C13.7173 11.5557 14.2458 11.29 14.6221 10.7588C15.0039 10.2275 15.1948 9.45003 15.1948 8.42627C15.1948 7.51872 14.9984 6.79932 14.6055 6.26807C14.2181 5.73682 13.6896 5.47119 13.02 5.47119C12.3615 5.47119 11.8385 5.73405 11.4512 6.25977C11.0638 6.77995 10.8701 7.56022 10.8701 8.60059ZM20.7812 4.01855L20.8394 5.05615C21.5034 4.25374 22.375 3.85254 23.4541 3.85254C25.3245 3.85254 26.2764 4.92334 26.3096 7.06494V13H24.2925V7.18115C24.2925 6.61117 24.168 6.19059 23.9189 5.91943C23.6755 5.64274 23.2743 5.50439 22.7153 5.50439C21.9019 5.50439 21.2959 5.8724 20.8975 6.6084V13H18.8804V4.01855H20.7812ZM27.9946 8.44287C27.9946 7.05941 28.3156 5.94987 28.9575 5.11426C29.5994 4.27311 30.46 3.85254 31.5391 3.85254C32.4909 3.85254 33.2601 4.18457 33.8467 4.84863V0.25H35.8638V13H34.0376L33.938 12.0703C33.3348 12.8008 32.5296 13.166 31.5225 13.166C30.471 13.166 29.6188 12.7427 28.9658 11.896C28.3184 11.0493 27.9946 9.89827 27.9946 8.44287ZM30.0117 8.61719C30.0117 9.53027 30.186 10.2441 30.5347 10.7588C30.8888 11.2679 31.3896 11.5225 32.0371 11.5225C32.8617 11.5225 33.4648 11.1545 33.8467 10.4185V6.5835C33.4759 5.8641 32.8783 5.50439 32.0537 5.50439C31.4007 5.50439 30.8971 5.76449 30.543 6.28467C30.1888 6.79932 30.0117 7.57682 30.0117 8.61719ZM37.5903 8.42627C37.5903 7.54639 37.7646 6.75505 38.1133 6.05225C38.4619 5.34391 38.9517 4.8016 39.5825 4.42529C40.2134 4.04346 40.9383 3.85254 41.7573 3.85254C42.9692 3.85254 43.9515 4.24268 44.7041 5.02295C45.4622 5.80322 45.8717 6.83805 45.9326 8.12744L45.9409 8.60059C45.9409 9.486 45.7694 10.2773 45.4263 10.9746C45.0887 11.6719 44.6017 12.2114 43.9653 12.5933C43.3345 12.9751 42.604 13.166 41.7739 13.166C40.5067 13.166 39.4912 12.7454 38.7275 11.9043C37.9694 11.0576 37.5903 9.93148 37.5903 8.52588V8.42627ZM39.6074 8.60059C39.6074 9.52474 39.7983 10.2497 40.1802 10.7754C40.562 11.2956 41.0933 11.5557 41.7739 11.5557C42.4546 11.5557 42.9831 11.29 43.3594 10.7588C43.7412 10.2275 43.9321 9.45003 43.9321 8.42627C43.9321 7.51872 43.7357 6.79932 43.3428 6.26807C42.9554 5.73682 42.4269 5.47119 41.7573 5.47119C41.0988 5.47119 40.5758 5.73405 40.1885 6.25977C39.8011 6.77995 39.6074 7.56022 39.6074 8.60059ZM49.5186 4.01855L49.5767 5.05615C50.2407 4.25374 51.1123 3.85254 52.1914 3.85254C54.0618 3.85254 55.0137 4.92334 55.0469 7.06494V13H53.0298V7.18115C53.0298 6.61117 52.9053 6.19059 52.6562 5.91943C52.4128 5.64274 52.0116 5.50439 51.4526 5.50439C50.6392 5.50439 50.0332 5.8724 49.6348 6.6084V13H47.6177V4.01855H49.5186Z" fill="white"/>
</svg>
