<svg width="54" height="14" viewBox="0 0 54 14" fill="none" xmlns="http://www.w3.org/2000/svg">
<path d="M10.5469 1.99609H6.55664V13H4.35059V1.99609H0.395508V0.203125H10.5469V1.99609ZM15.4248 13.1758C14.0713 13.1758 12.9727 12.751 12.1289 11.9014C11.291 11.0459 10.8721 9.90918 10.8721 8.49121V8.22754C10.8721 7.27832 11.0537 6.43164 11.417 5.6875C11.7861 4.9375 12.3018 4.35449 12.9639 3.93848C13.626 3.52246 14.3643 3.31445 15.1787 3.31445C16.4736 3.31445 17.4727 3.72754 18.1758 4.55371C18.8848 5.37988 19.2393 6.54883 19.2393 8.06055V8.92188H13.0254C13.0898 9.70703 13.3506 10.3281 13.8076 10.7852C14.2705 11.2422 14.8506 11.4707 15.5479 11.4707C16.5264 11.4707 17.3232 11.0752 17.9385 10.2842L19.0898 11.3828C18.709 11.9512 18.1992 12.3936 17.5605 12.71C16.9277 13.0205 16.2158 13.1758 15.4248 13.1758ZM15.1699 5.02832C14.584 5.02832 14.1094 5.2334 13.7461 5.64355C13.3887 6.05371 13.1602 6.625 13.0605 7.35742H17.1299V7.19922C17.083 6.48438 16.8926 5.94531 16.5586 5.58203C16.2246 5.21289 15.7617 5.02832 15.1699 5.02832ZM26.5869 13C26.4932 12.8184 26.4111 12.5225 26.3408 12.1123C25.6611 12.8213 24.8291 13.1758 23.8447 13.1758C22.8896 13.1758 22.1104 12.9033 21.5068 12.3584C20.9033 11.8135 20.6016 11.1396 20.6016 10.3369C20.6016 9.32324 20.9766 8.54688 21.7266 8.00781C22.4824 7.46289 23.5605 7.19043 24.9609 7.19043H26.2705V6.56641C26.2705 6.07422 26.1328 5.68164 25.8574 5.38867C25.582 5.08984 25.1631 4.94043 24.6006 4.94043C24.1143 4.94043 23.7158 5.06348 23.4053 5.30957C23.0947 5.5498 22.9395 5.85742 22.9395 6.23242H20.8037C20.8037 5.71094 20.9766 5.22461 21.3223 4.77344C21.668 4.31641 22.1367 3.95898 22.7285 3.70117C23.3262 3.44336 23.9912 3.31445 24.7236 3.31445C25.8369 3.31445 26.7246 3.5957 27.3867 4.1582C28.0488 4.71484 28.3887 5.5 28.4062 6.51367V10.8027C28.4062 11.6582 28.5264 12.3408 28.7666 12.8506V13H26.5869ZM24.2402 11.4619C24.6621 11.4619 25.0576 11.3594 25.4268 11.1543C25.8018 10.9492 26.083 10.6738 26.2705 10.3281V8.53516H25.1191C24.3281 8.53516 23.7334 8.67285 23.335 8.94824C22.9365 9.22363 22.7373 9.61328 22.7373 10.1172C22.7373 10.5273 22.8721 10.8555 23.1416 11.1016C23.417 11.3418 23.7832 11.4619 24.2402 11.4619ZM32.6514 3.49023L32.7129 4.4834C33.3809 3.7041 34.2949 3.31445 35.4551 3.31445C36.7266 3.31445 37.5967 3.80078 38.0654 4.77344C38.7568 3.80078 39.7295 3.31445 40.9834 3.31445C42.0322 3.31445 42.8115 3.60449 43.3213 4.18457C43.8369 4.76465 44.1006 5.62012 44.1123 6.75098V13H41.9766V6.8125C41.9766 6.20898 41.8447 5.7666 41.5811 5.48535C41.3174 5.2041 40.8809 5.06348 40.2715 5.06348C39.7852 5.06348 39.3867 5.19531 39.0762 5.45898C38.7715 5.7168 38.5576 6.05664 38.4346 6.47852L38.4434 13H36.3076V6.74219C36.2783 5.62305 35.707 5.06348 34.5938 5.06348C33.7383 5.06348 33.1318 5.41211 32.7744 6.10938V13H30.6387V3.49023H32.6514ZM51.6357 10.416C51.6357 10.0352 51.4775 9.74512 51.1611 9.5459C50.8506 9.34668 50.332 9.1709 49.6055 9.01855C48.8789 8.86621 48.2725 8.67285 47.7861 8.43848C46.7197 7.92285 46.1865 7.17578 46.1865 6.19727C46.1865 5.37695 46.5322 4.69141 47.2236 4.14062C47.915 3.58984 48.7939 3.31445 49.8604 3.31445C50.9971 3.31445 51.9141 3.5957 52.6113 4.1582C53.3145 4.7207 53.666 5.4502 53.666 6.34668H51.5303C51.5303 5.93652 51.3779 5.59668 51.0732 5.32715C50.7686 5.05176 50.3643 4.91406 49.8604 4.91406C49.3916 4.91406 49.0078 5.02246 48.709 5.23926C48.416 5.45605 48.2695 5.74609 48.2695 6.10938C48.2695 6.4375 48.4072 6.69238 48.6826 6.87402C48.958 7.05566 49.5146 7.24023 50.3525 7.42773C51.1904 7.60938 51.8467 7.8291 52.3213 8.08691C52.8018 8.33887 53.1562 8.64355 53.3848 9.00098C53.6191 9.3584 53.7363 9.79199 53.7363 10.3018C53.7363 11.1572 53.3818 11.8516 52.6729 12.3848C51.9639 12.9121 51.0352 13.1758 49.8867 13.1758C49.1074 13.1758 48.4131 13.0352 47.8037 12.7539C47.1943 12.4727 46.7197 12.0859 46.3799 11.5938C46.04 11.1016 45.8701 10.5713 45.8701 10.0029H47.9443C47.9736 10.5068 48.1641 10.8965 48.5156 11.1719C48.8672 11.4414 49.333 11.5762 49.9131 11.5762C50.4756 11.5762 50.9033 11.4707 51.1963 11.2598C51.4893 11.043 51.6357 10.7617 51.6357 10.416Z" fill="#172C41"/>
</svg>
