<svg width="12" height="12" viewBox="0 0 12 12" fill="none" xmlns="http://www.w3.org/2000/svg">
<path d="M11.8822 5.99999C11.8822 4.81998 11.4019 3.75009 10.6266 2.97545C9.95386 2.30329 8.99037 1.72755 7.75997 1.26701C6.7835 0.901522 5.63694 0.605717 4.35212 0.387796C2.16939 0.0176015 0.313332 0.000140625 0.29484 0C0.294231 0 0.293692 0.000164062 0.293106 0.0001875C0.209481 0.000421874 0.135512 0.0601171 0.120489 0.145289C0.103661 0.24089 0.167504 0.332038 0.263106 0.348913C0.2812 0.352101 2.09381 0.678069 3.87883 1.54739C4.41786 1.80991 4.89592 2.09086 5.31296 2.38959C5.16156 2.48566 5.01594 2.59124 4.87719 2.70604C4.70134 2.68633 4.52232 2.66744 4.34005 2.64939C2.16297 2.43382 0.312793 2.42362 0.294348 2.42355H0.293598C0.196872 2.42355 0.118262 2.50176 0.11784 2.5986C0.117419 2.69568 0.195793 2.77471 0.292895 2.77511C0.311176 2.77518 2.14734 2.78538 4.30839 2.99953C4.3844 3.00705 4.45977 3.01478 4.53472 3.02263C4.37636 3.18571 4.22978 3.3621 4.09738 3.55138C4.04176 3.63093 4.06115 3.74052 4.14072 3.79616C4.22024 3.85178 4.32986 3.8324 4.3855 3.75283C4.52807 3.54897 4.68845 3.36126 4.86341 3.19075L5.03781 3.29144C5.08541 3.31893 5.11499 3.37014 5.11499 3.4251V4.47332C5.11499 4.52828 5.08541 4.57949 5.03783 4.60698L4.13005 5.13109C4.08245 5.15856 4.02332 5.15856 3.97572 5.13109L3.7997 5.02947C3.8601 4.79219 3.94293 4.56053 4.04826 4.33583C4.08946 4.24794 4.05161 4.14327 3.96369 4.10207C3.87587 4.06089 3.77113 4.09874 3.72993 4.18663C3.48775 4.70331 3.35425 5.25343 3.33149 5.82418H0.293598C0.196497 5.82418 0.117817 5.90286 0.117817 5.99996C0.117817 6.09707 0.196497 6.17575 0.293598 6.17575H3.33144C3.3756 7.2624 3.82698 8.24579 4.5369 8.97713C4.46125 8.98505 4.3851 8.99283 4.30836 9.00045C2.14731 9.21462 0.311153 9.22479 0.292871 9.22486C0.19577 9.22529 0.117419 9.30432 0.117817 9.40137C0.118239 9.49821 0.196848 9.57643 0.293575 9.57643H0.294325C0.31277 9.57635 2.16297 9.56616 4.34003 9.35058C4.52296 9.33247 4.70256 9.3135 4.87902 9.2937C5.01678 9.40791 5.16184 9.51361 5.31331 9.61011C4.8962 9.90896 4.41803 10.19 3.87883 10.4526C2.09383 11.3219 0.281223 11.6479 0.263106 11.651C0.167504 11.6679 0.103661 11.759 0.120489 11.8547C0.135512 11.94 0.209668 12 0.293387 12C0.293551 12 0.293739 12 0.293926 12H0.294864C0.313356 11.9998 2.16939 11.9824 4.35212 11.6122C5.63694 11.3942 6.7835 11.0984 7.75997 10.7329C8.99124 10.2721 9.95524 9.69586 10.628 9.02309C10.6281 9.02302 10.6281 9.02295 10.6282 9.02288C11.4026 8.24841 11.8822 7.17917 11.8822 5.99999ZM6.54277 6.17577H7.42524C7.41228 6.47349 7.36608 6.7626 7.28701 7.04288L6.61995 6.65776C6.57235 6.63027 6.54277 6.57906 6.54277 6.5241V6.17577ZM6.61993 5.34224L7.28701 4.95711C7.36608 5.2374 7.41226 5.52648 7.42524 5.82421H6.54277V5.4759C6.54277 5.42094 6.57235 5.36971 6.61993 5.34224ZM10.0948 3.42513C10.0948 3.37014 10.1244 3.31895 10.172 3.29146L10.345 3.1916C10.8535 3.68788 11.2283 4.32053 11.4093 5.02996L11.2341 5.13111C11.1865 5.15858 11.1274 5.15858 11.0798 5.13111L10.172 4.60701C10.1244 4.57951 10.0948 4.52833 10.0948 4.47334V3.42513ZM6.54277 2.2211C6.88466 2.12482 7.24166 2.07421 7.60489 2.07421C7.97281 2.07421 8.32904 2.12521 8.66698 2.2203V2.42254C8.66698 2.4775 8.6374 2.52871 8.58982 2.55621L7.68207 3.08029C7.63442 3.10781 7.57526 3.10778 7.52771 3.08031L6.61995 2.55621C6.57235 2.52871 6.54277 2.4775 6.54277 2.42254V2.2211ZM6.44415 2.86068L7.35193 3.38479C7.42995 3.42984 7.5174 3.45236 7.60487 3.45234C7.69231 3.45234 7.7798 3.42981 7.85783 3.38479L8.76563 2.86068C8.92163 2.77056 9.01854 2.60268 9.01854 2.42257V2.33767C9.40081 2.48573 9.75422 2.692 10.068 2.94555L9.99619 2.98701C9.84017 3.0771 9.74325 3.24499 9.74325 3.42513V4.47334C9.74325 4.65351 9.84017 4.82139 9.99619 4.91146L10.904 5.43557C10.982 5.48061 11.0695 5.50314 11.1569 5.50314C11.2444 5.50314 11.3318 5.48061 11.4098 5.43557L11.4837 5.39293C11.5057 5.53436 11.52 5.67826 11.5265 5.82421H9.01857V5.4759C9.01857 5.29576 8.92165 5.12788 8.76563 5.03779L7.85785 4.5137C7.74422 4.4481 7.61056 4.4305 7.48604 4.46045C7.28762 3.96545 6.98952 3.4967 6.59295 3.05772C6.40107 2.84533 6.18608 2.63988 5.9488 2.44181C6.02842 2.40473 6.10923 2.37021 6.19121 2.33852V2.42259C6.19121 2.60268 6.28813 2.77056 6.44415 2.86068ZM8.667 6.17577V6.5241C8.667 6.57906 8.63743 6.63027 8.58985 6.65776L7.68207 7.18184C7.65812 7.1957 7.63123 7.20252 7.60437 7.20242C7.70492 6.87078 7.76258 6.52824 7.77692 6.17575H8.667V6.17577ZM7.7769 5.82421C7.76255 5.47173 7.7049 5.12919 7.60437 4.79755C7.63123 4.79746 7.65809 4.8043 7.68204 4.81813L8.5898 5.34222C8.6374 5.36971 8.66698 5.42092 8.66698 5.47588V5.82421H7.7769ZM7.48604 7.53957C7.52506 7.54897 7.56495 7.55389 7.60489 7.55389C7.69236 7.55389 7.77985 7.53137 7.85785 7.48632L8.76565 6.96224C8.92165 6.87212 9.01857 6.70424 9.01857 6.52412V6.17577H11.5266C11.5201 6.32171 11.5058 6.46564 11.4837 6.60706L11.4099 6.56443C11.2539 6.47434 11.06 6.47434 10.904 6.56443L9.99624 7.08854C9.84021 7.17863 9.7433 7.34652 9.7433 7.52666V8.57487C9.7433 8.75504 9.84021 8.92292 9.99624 9.01299L10.068 9.05445C9.75424 9.30797 9.40083 9.51425 9.01859 9.6623V9.57743C9.01859 9.39729 8.92168 9.22941 8.76565 9.13932L7.85785 8.61519C7.70187 8.52514 7.508 8.52509 7.35197 8.61521L6.44417 9.13932C6.28817 9.22943 6.19126 9.39732 6.19126 9.57743V9.66228C6.10892 9.63038 6.02795 9.59574 5.94838 9.55857C6.18584 9.36038 6.401 9.15479 6.59298 8.94226C6.98951 8.50332 7.28762 8.03455 7.48604 7.53957ZM10.345 8.8084L10.172 8.70856C10.1244 8.68107 10.0948 8.62988 10.0948 8.5749V7.52668C10.0948 7.4717 10.1244 7.42051 10.172 7.39302L11.0798 6.86891C11.1274 6.84144 11.1865 6.84144 11.2341 6.86891L11.4093 6.97006C11.2283 7.67947 10.8535 8.31214 10.345 8.8084ZM6.54277 9.57746C6.54277 9.5225 6.57235 9.47128 6.61993 9.44379L7.52771 8.91968C7.57531 8.89222 7.63444 8.89222 7.68204 8.91968L8.5898 9.44379C8.6374 9.47128 8.66698 9.5225 8.66698 9.57746V9.77968C8.32904 9.87476 7.97281 9.92576 7.60489 9.92576C7.23694 9.92576 6.88072 9.87476 6.54277 9.77968V9.57746ZM4.02613 1.22808C3.33761 0.893272 2.65356 0.638788 2.06413 0.450843C2.70632 0.507327 3.47622 0.595827 4.29332 0.734389C5.72394 0.977014 6.96861 1.31655 7.99831 1.74089C7.8687 1.729 7.73755 1.72263 7.60491 1.72263C6.91295 1.72263 6.24181 1.89091 5.64324 2.19998C5.17635 1.84959 4.6359 1.52458 4.02613 1.22808ZM3.72573 5.39275L3.79991 5.43559C3.87791 5.48061 3.96538 5.50311 4.05285 5.50311C4.14029 5.50311 4.22779 5.48061 4.30579 5.43557L5.21359 4.91146C5.36959 4.82134 5.4665 4.65346 5.4665 4.47334V3.42513C5.4665 3.24499 5.36959 3.0771 5.21357 2.98701L5.14077 2.94499C5.29084 2.8241 5.44921 2.7146 5.61463 2.61731C6.36845 3.21754 6.88902 3.88527 7.17324 4.61687L6.44415 5.03779H6.44413C6.28813 5.1279 6.19121 5.29579 6.19121 5.4759V5.82421H3.68326C3.68959 5.67882 3.70375 5.53492 3.72573 5.39275ZM5.11496 8.57487C5.11496 8.62983 5.08539 8.68104 5.03781 8.70854L4.86484 8.80838C4.35629 8.31209 3.98151 7.67945 3.8005 6.97002L3.97565 6.86888C4.02329 6.84137 4.08245 6.84139 4.13 6.86886L5.03776 7.39297C5.08536 7.42046 5.11494 7.47167 5.11494 7.52663V8.57487H5.11496ZM5.14178 9.05445L5.21359 9.01299C5.36959 8.92287 5.4665 8.75499 5.4665 8.57487V7.52666C5.4665 7.34652 5.36959 7.17863 5.21357 7.08854L4.30579 6.56443C4.14979 6.47434 3.95594 6.47432 3.79989 6.56443L3.72608 6.60704C3.70403 6.46562 3.68971 6.32171 3.68324 6.17577H6.19121V6.5241C6.19121 6.70424 6.28813 6.87212 6.44415 6.96221L7.17322 7.38313C6.88902 8.11468 6.36847 8.78239 5.61472 9.3826C5.4489 9.28468 5.29086 9.17492 5.14178 9.05445ZM4.2984 11.2647C3.47983 11.4037 2.70803 11.4924 2.06437 11.549C2.65375 11.3611 3.33768 11.1067 4.02613 10.7719C4.63583 10.4754 5.17623 10.1505 5.64308 9.80009C6.23106 10.1049 6.8982 10.2773 7.60494 10.2773C7.73757 10.2773 7.86872 10.2709 7.99833 10.259C6.9698 10.6829 5.72685 11.0221 4.2984 11.2647Z" fill="#F53636"/>
</svg>
