<svg width="69" height="11" viewBox="0 0 69 11" fill="none" xmlns="http://www.w3.org/2000/svg">
<path d="M4.13232 8.38135L6.77295 0.757812H8.10596L4.67822 10H3.59912L0.177734 0.757812H1.50439L4.13232 8.38135ZM10.4419 10H9.26758V3.13184H10.4419V10ZM9.17236 1.31006C9.17236 1.11963 9.22949 0.958822 9.34375 0.827637C9.46224 0.696452 9.63574 0.630859 9.86426 0.630859C10.0928 0.630859 10.2663 0.696452 10.3848 0.827637C10.5033 0.958822 10.5625 1.11963 10.5625 1.31006C10.5625 1.50049 10.5033 1.65918 10.3848 1.78613C10.2663 1.91309 10.0928 1.97656 9.86426 1.97656C9.63574 1.97656 9.46224 1.91309 9.34375 1.78613C9.22949 1.65918 9.17236 1.50049 9.17236 1.31006ZM15.1772 10.127C14.2463 10.127 13.4888 9.82227 12.9048 9.21289C12.3208 8.59928 12.0288 7.78044 12.0288 6.75635V6.54053C12.0288 5.85921 12.1579 5.25195 12.416 4.71875C12.6784 4.18132 13.0423 3.76237 13.5078 3.46191C13.9775 3.15723 14.4854 3.00488 15.0312 3.00488C15.9242 3.00488 16.6182 3.29899 17.1133 3.88721C17.6084 4.47542 17.856 5.31755 17.856 6.41357V6.90234H13.2031C13.2201 7.57943 13.4168 8.12744 13.7935 8.54639C14.1743 8.9611 14.6567 9.16846 15.2407 9.16846C15.6554 9.16846 16.0067 9.08382 16.2944 8.91455C16.5822 8.74528 16.834 8.521 17.0498 8.2417L17.7671 8.80029C17.1916 9.68473 16.3283 10.127 15.1772 10.127ZM15.0312 3.96973C14.5573 3.96973 14.1595 4.14323 13.8379 4.49023C13.5163 4.83301 13.3174 5.31543 13.2412 5.9375H16.6816V5.84863C16.6478 5.25195 16.487 4.79069 16.1992 4.46484C15.9115 4.13477 15.5221 3.96973 15.0312 3.96973ZM25.3018 8.38135L26.6221 3.13184H27.7964L25.7969 10H24.8447L23.1753 4.79492L21.5503 10H20.5981L18.605 3.13184H19.7729L21.125 8.27344L22.7246 3.13184H23.6704L25.3018 8.38135ZM33.6235 6.38184V10H32.4048V0.757812H35.8135C36.8249 0.757812 37.6162 1.01595 38.1875 1.53223C38.763 2.0485 39.0508 2.73193 39.0508 3.58252C39.0508 4.47965 38.7694 5.17155 38.2065 5.6582C37.6479 6.14062 36.846 6.38184 35.8008 6.38184H33.6235ZM33.6235 5.38525H35.8135C36.4652 5.38525 36.9645 5.23291 37.3115 4.92822C37.6585 4.6193 37.832 4.17497 37.832 3.59521C37.832 3.04508 37.6585 2.60498 37.3115 2.2749C36.9645 1.94482 36.4884 1.77344 35.8833 1.76074H33.6235V5.38525ZM43.7417 4.18555C43.564 4.15592 43.3714 4.14111 43.1641 4.14111C42.3939 4.14111 41.8713 4.46908 41.5962 5.125V10H40.4219V3.13184H41.5645L41.5835 3.92529C41.9686 3.31169 42.5145 3.00488 43.2212 3.00488C43.4497 3.00488 43.6232 3.03451 43.7417 3.09375V4.18555ZM44.3892 6.50244C44.3892 5.82959 44.5203 5.22445 44.7827 4.68701C45.0493 4.14958 45.4175 3.73486 45.8872 3.44287C46.3612 3.15088 46.9007 3.00488 47.5059 3.00488C48.4411 3.00488 49.1965 3.32861 49.772 3.97607C50.3517 4.62354 50.6416 5.4847 50.6416 6.55957V6.64209C50.6416 7.31071 50.5125 7.91162 50.2544 8.44482C50.0005 8.9738 49.6344 9.38639 49.1562 9.68262C48.6823 9.97884 48.1364 10.127 47.5186 10.127C46.5876 10.127 45.8322 9.80322 45.2524 9.15576C44.6769 8.5083 44.3892 7.65137 44.3892 6.58496V6.50244ZM45.5698 6.64209C45.5698 7.40381 45.7454 8.0153 46.0967 8.47656C46.4521 8.93783 46.9261 9.16846 47.5186 9.16846C48.1152 9.16846 48.5892 8.93571 48.9404 8.47021C49.2917 8.00049 49.4673 7.34456 49.4673 6.50244C49.4673 5.74919 49.2874 5.13981 48.9277 4.67432C48.5723 4.20459 48.0983 3.96973 47.5059 3.96973C46.9261 3.96973 46.4585 4.20036 46.103 4.66162C45.7476 5.12288 45.5698 5.78304 45.5698 6.64209ZM52.5078 10V4.03955H51.4224V3.13184H52.5078V2.54785C52.5078 1.7819 52.7257 1.18522 53.1616 0.757812C53.6017 0.330404 54.2217 0.116699 55.0215 0.116699C55.4954 0.116699 56.0942 0.245768 56.8179 0.503906L56.6211 1.49414C56.0921 1.28255 55.5885 1.17676 55.1104 1.17676C54.6068 1.17676 54.2428 1.29102 54.0186 1.51953C53.7985 1.74382 53.6885 2.08236 53.6885 2.53516V3.13184H55.0913V4.03955H53.6885V10H52.5078ZM57.4019 10H56.2212V3.13184H57.4019V10ZM60.5884 10H59.4141V0.25H60.5884V10ZM65.3237 10.127C64.3927 10.127 63.6353 9.82227 63.0513 9.21289C62.4673 8.59928 62.1753 7.78044 62.1753 6.75635V6.54053C62.1753 5.85921 62.3044 5.25195 62.5625 4.71875C62.8249 4.18132 63.1888 3.76237 63.6543 3.46191C64.124 3.15723 64.6318 3.00488 65.1777 3.00488C66.0706 3.00488 66.7646 3.29899 67.2598 3.88721C67.7549 4.47542 68.0024 5.31755 68.0024 6.41357V6.90234H63.3496C63.3665 7.57943 63.5633 8.12744 63.9399 8.54639C64.3208 8.9611 64.8032 9.16846 65.3872 9.16846C65.8019 9.16846 66.1532 9.08382 66.4409 8.91455C66.7287 8.74528 66.9805 8.521 67.1963 8.2417L67.9136 8.80029C67.3381 9.68473 66.4748 10.127 65.3237 10.127ZM65.1777 3.96973C64.7038 3.96973 64.306 4.14323 63.9844 4.49023C63.6628 4.83301 63.4639 5.31543 63.3877 5.9375H66.8281V5.84863C66.7943 5.25195 66.6335 4.79069 66.3457 4.46484C66.0579 4.13477 65.6686 3.96973 65.1777 3.96973Z" fill="#2DCC70"/>
</svg>
